%YAML 1.1
%TAG !u! tag:unity3d.com,2011:
--- !u!1 &5001834111165059343
GameObject:
  m_ObjectHideFlags: 0
  m_CorrespondingSourceObject: {fileID: 0}
  m_PrefabInstance: {fileID: 0}
  m_PrefabAsset: {fileID: 0}
  serializedVersion: 6
  m_Component:
  - component: {fileID: 5146275426178747321}
  - component: {fileID: 8099720069110083543}
  - component: {fileID: 390916411809475184}
  m_Layer: 0
  m_Name: Layer1
  m_TagString: Untagged
  m_Icon: {fileID: 0}
  m_NavMeshLayer: 0
  m_StaticEditorFlags: 0
  m_IsActive: 1
--- !u!4 &5146275426178747321
Transform:
  m_ObjectHideFlags: 0
  m_CorrespondingSourceObject: {fileID: 0}
  m_PrefabInstance: {fileID: 0}
  m_PrefabAsset: {fileID: 0}
  m_GameObject: {fileID: 5001834111165059343}
  m_LocalRotation: {x: -0, y: -0, z: -0, w: 1}
  m_LocalPosition: {x: 0, y: 0, z: 0}
  m_LocalScale: {x: 1, y: 1, z: 1}
  m_Children: []
  m_Father: {fileID: 5213765341043227199}
  m_RootOrder: 0
  m_LocalEulerAnglesHint: {x: 0, y: 0, z: 0}
--- !u!1839735485 &8099720069110083543
Tilemap:
  m_ObjectHideFlags: 0
  m_CorrespondingSourceObject: {fileID: 0}
  m_PrefabInstance: {fileID: 0}
  m_PrefabAsset: {fileID: 0}
  m_GameObject: {fileID: 5001834111165059343}
  m_Enabled: 1
  m_Tiles:
  - first: {x: 9, y: -14, z: 0}
    second:
      serializedVersion: 2
      m_TileIndex: 195
      m_TileSpriteIndex: 195
      m_TileMatrixIndex: 0
      m_TileColorIndex: 0
      m_TileObjectToInstantiateIndex: 65535
      m_AllTileFlags: 1073741825
  - first: {x: 10, y: -14, z: 0}
    second:
      serializedVersion: 2
      m_TileIndex: 196
      m_TileSpriteIndex: 196
      m_TileMatrixIndex: 0
      m_TileColorIndex: 0
      m_TileObjectToInstantiateIndex: 65535
      m_AllTileFlags: 1073741825
  - first: {x: 13, y: -14, z: 0}
    second:
      serializedVersion: 2
      m_TileIndex: 197
      m_TileSpriteIndex: 197
      m_TileMatrixIndex: 0
      m_TileColorIndex: 0
      m_TileObjectToInstantiateIndex: 65535
      m_AllTileFlags: 1073741825
  - first: {x: 9, y: -13, z: 0}
    second:
      serializedVersion: 2
      m_TileIndex: 190
      m_TileSpriteIndex: 190
      m_TileMatrixIndex: 0
      m_TileColorIndex: 0
      m_TileObjectToInstantiateIndex: 65535
      m_AllTileFlags: 1073741825
  - first: {x: 10, y: -13, z: 0}
    second:
      serializedVersion: 2
      m_TileIndex: 191
      m_TileSpriteIndex: 191
      m_TileMatrixIndex: 0
      m_TileColorIndex: 0
      m_TileObjectToInstantiateIndex: 65535
      m_AllTileFlags: 1073741825
  - first: {x: 11, y: -13, z: 0}
    second:
      serializedVersion: 2
      m_TileIndex: 192
      m_TileSpriteIndex: 192
      m_TileMatrixIndex: 0
      m_TileColorIndex: 0
      m_TileObjectToInstantiateIndex: 65535
      m_AllTileFlags: 1073741825
  - first: {x: 12, y: -13, z: 0}
    second:
      serializedVersion: 2
      m_TileIndex: 193
      m_TileSpriteIndex: 193
      m_TileMatrixIndex: 0
      m_TileColorIndex: 0
      m_TileObjectToInstantiateIndex: 65535
      m_AllTileFlags: 1073741825
  - first: {x: 13, y: -13, z: 0}
    second:
      serializedVersion: 2
      m_TileIndex: 194
      m_TileSpriteIndex: 194
      m_TileMatrixIndex: 0
      m_TileColorIndex: 0
      m_TileObjectToInstantiateIndex: 65535
      m_AllTileFlags: 1073741825
  - first: {x: -2, y: -12, z: 0}
    second:
      serializedVersion: 2
      m_TileIndex: 180
      m_TileSpriteIndex: 180
      m_TileMatrixIndex: 0
      m_TileColorIndex: 0
      m_TileObjectToInstantiateIndex: 65535
      m_AllTileFlags: 1073741825
  - first: {x: -1, y: -12, z: 0}
    second:
      serializedVersion: 2
      m_TileIndex: 181
      m_TileSpriteIndex: 181
      m_TileMatrixIndex: 0
      m_TileColorIndex: 0
      m_TileObjectToInstantiateIndex: 65535
      m_AllTileFlags: 1073741825
  - first: {x: 0, y: -12, z: 0}
    second:
      serializedVersion: 2
      m_TileIndex: 182
      m_TileSpriteIndex: 182
      m_TileMatrixIndex: 0
      m_TileColorIndex: 0
      m_TileObjectToInstantiateIndex: 65535
      m_AllTileFlags: 1073741825
  - first: {x: 6, y: -12, z: 0}
    second:
      serializedVersion: 2
      m_TileIndex: 183
      m_TileSpriteIndex: 183
      m_TileMatrixIndex: 0
      m_TileColorIndex: 0
      m_TileObjectToInstantiateIndex: 65535
      m_AllTileFlags: 1073741825
  - first: {x: 8, y: -12, z: 0}
    second:
      serializedVersion: 2
      m_TileIndex: 184
      m_TileSpriteIndex: 184
      m_TileMatrixIndex: 0
      m_TileColorIndex: 0
      m_TileObjectToInstantiateIndex: 65535
      m_AllTileFlags: 1073741825
  - first: {x: 9, y: -12, z: 0}
    second:
      serializedVersion: 2
      m_TileIndex: 185
      m_TileSpriteIndex: 185
      m_TileMatrixIndex: 0
      m_TileColorIndex: 0
      m_TileObjectToInstantiateIndex: 65535
      m_AllTileFlags: 1073741825
  - first: {x: 10, y: -12, z: 0}
    second:
      serializedVersion: 2
      m_TileIndex: 186
      m_TileSpriteIndex: 186
      m_TileMatrixIndex: 0
      m_TileColorIndex: 0
      m_TileObjectToInstantiateIndex: 65535
      m_AllTileFlags: 1073741825
  - first: {x: 11, y: -12, z: 0}
    second:
      serializedVersion: 2
      m_TileIndex: 187
      m_TileSpriteIndex: 187
      m_TileMatrixIndex: 0
      m_TileColorIndex: 0
      m_TileObjectToInstantiateIndex: 65535
      m_AllTileFlags: 1073741825
  - first: {x: 12, y: -12, z: 0}
    second:
      serializedVersion: 2
      m_TileIndex: 188
      m_TileSpriteIndex: 188
      m_TileMatrixIndex: 0
      m_TileColorIndex: 0
      m_TileObjectToInstantiateIndex: 65535
      m_AllTileFlags: 1073741825
  - first: {x: 13, y: -12, z: 0}
    second:
      serializedVersion: 2
      m_TileIndex: 189
      m_TileSpriteIndex: 189
      m_TileMatrixIndex: 0
      m_TileColorIndex: 0
      m_TileObjectToInstantiateIndex: 65535
      m_AllTileFlags: 1073741825
  - first: {x: -2, y: -11, z: 0}
    second:
      serializedVersion: 2
      m_TileIndex: 168
      m_TileSpriteIndex: 168
      m_TileMatrixIndex: 0
      m_TileColorIndex: 0
      m_TileObjectToInstantiateIndex: 65535
      m_AllTileFlags: 1073741825
  - first: {x: -1, y: -11, z: 0}
    second:
      serializedVersion: 2
      m_TileIndex: 169
      m_TileSpriteIndex: 169
      m_TileMatrixIndex: 0
      m_TileColorIndex: 0
      m_TileObjectToInstantiateIndex: 65535
      m_AllTileFlags: 1073741825
  - first: {x: 0, y: -11, z: 0}
    second:
      serializedVersion: 2
      m_TileIndex: 170
      m_TileSpriteIndex: 170
      m_TileMatrixIndex: 0
      m_TileColorIndex: 0
      m_TileObjectToInstantiateIndex: 65535
      m_AllTileFlags: 1073741825
  - first: {x: 1, y: -11, z: 0}
    second:
      serializedVersion: 2
      m_TileIndex: 171
      m_TileSpriteIndex: 171
      m_TileMatrixIndex: 0
      m_TileColorIndex: 0
      m_TileObjectToInstantiateIndex: 65535
      m_AllTileFlags: 1073741825
  - first: {x: 2, y: -11, z: 0}
    second:
      serializedVersion: 2
      m_TileIndex: 172
      m_TileSpriteIndex: 172
      m_TileMatrixIndex: 0
      m_TileColorIndex: 0
      m_TileObjectToInstantiateIndex: 65535
      m_AllTileFlags: 1073741825
  - first: {x: 6, y: -11, z: 0}
    second:
      serializedVersion: 2
      m_TileIndex: 173
      m_TileSpriteIndex: 173
      m_TileMatrixIndex: 0
      m_TileColorIndex: 0
      m_TileObjectToInstantiateIndex: 65535
      m_AllTileFlags: 1073741825
  - first: {x: 8, y: -11, z: 0}
    second:
      serializedVersion: 2
      m_TileIndex: 174
      m_TileSpriteIndex: 174
      m_TileMatrixIndex: 0
      m_TileColorIndex: 0
      m_TileObjectToInstantiateIndex: 65535
      m_AllTileFlags: 1073741825
  - first: {x: 9, y: -11, z: 0}
    second:
      serializedVersion: 2
      m_TileIndex: 175
      m_TileSpriteIndex: 175
      m_TileMatrixIndex: 0
      m_TileColorIndex: 0
      m_TileObjectToInstantiateIndex: 65535
      m_AllTileFlags: 1073741825
  - first: {x: 10, y: -11, z: 0}
    second:
      serializedVersion: 2
      m_TileIndex: 176
      m_TileSpriteIndex: 176
      m_TileMatrixIndex: 0
      m_TileColorIndex: 0
      m_TileObjectToInstantiateIndex: 65535
      m_AllTileFlags: 1073741825
  - first: {x: 11, y: -11, z: 0}
    second:
      serializedVersion: 2
      m_TileIndex: 177
      m_TileSpriteIndex: 177
      m_TileMatrixIndex: 0
      m_TileColorIndex: 0
      m_TileObjectToInstantiateIndex: 65535
      m_AllTileFlags: 1073741825
  - first: {x: 12, y: -11, z: 0}
    second:
      serializedVersion: 2
      m_TileIndex: 178
      m_TileSpriteIndex: 178
      m_TileMatrixIndex: 0
      m_TileColorIndex: 0
      m_TileObjectToInstantiateIndex: 65535
      m_AllTileFlags: 1073741825
  - first: {x: 13, y: -11, z: 0}
    second:
      serializedVersion: 2
      m_TileIndex: 179
      m_TileSpriteIndex: 179
      m_TileMatrixIndex: 0
      m_TileColorIndex: 0
      m_TileObjectToInstantiateIndex: 65535
      m_AllTileFlags: 1073741825
  - first: {x: -2, y: -10, z: 0}
    second:
      serializedVersion: 2
      m_TileIndex: 155
      m_TileSpriteIndex: 155
      m_TileMatrixIndex: 0
      m_TileColorIndex: 0
      m_TileObjectToInstantiateIndex: 65535
      m_AllTileFlags: 1073741825
  - first: {x: -1, y: -10, z: 0}
    second:
      serializedVersion: 2
      m_TileIndex: 156
      m_TileSpriteIndex: 156
      m_TileMatrixIndex: 0
      m_TileColorIndex: 0
      m_TileObjectToInstantiateIndex: 65535
      m_AllTileFlags: 1073741825
  - first: {x: 0, y: -10, z: 0}
    second:
      serializedVersion: 2
      m_TileIndex: 157
      m_TileSpriteIndex: 157
      m_TileMatrixIndex: 0
      m_TileColorIndex: 0
      m_TileObjectToInstantiateIndex: 65535
      m_AllTileFlags: 1073741825
  - first: {x: 1, y: -10, z: 0}
    second:
      serializedVersion: 2
      m_TileIndex: 158
      m_TileSpriteIndex: 158
      m_TileMatrixIndex: 0
      m_TileColorIndex: 0
      m_TileObjectToInstantiateIndex: 65535
      m_AllTileFlags: 1073741825
  - first: {x: 2, y: -10, z: 0}
    second:
      serializedVersion: 2
      m_TileIndex: 159
      m_TileSpriteIndex: 159
      m_TileMatrixIndex: 0
      m_TileColorIndex: 0
      m_TileObjectToInstantiateIndex: 65535
      m_AllTileFlags: 1073741825
  - first: {x: 6, y: -10, z: 0}
    second:
      serializedVersion: 2
      m_TileIndex: 160
      m_TileSpriteIndex: 160
      m_TileMatrixIndex: 0
      m_TileColorIndex: 0
      m_TileObjectToInstantiateIndex: 65535
      m_AllTileFlags: 1073741825
  - first: {x: 7, y: -10, z: 0}
    second:
      serializedVersion: 2
      m_TileIndex: 161
      m_TileSpriteIndex: 161
      m_TileMatrixIndex: 0
      m_TileColorIndex: 0
      m_TileObjectToInstantiateIndex: 65535
      m_AllTileFlags: 1073741825
  - first: {x: 8, y: -10, z: 0}
    second:
      serializedVersion: 2
      m_TileIndex: 162
      m_TileSpriteIndex: 162
      m_TileMatrixIndex: 0
      m_TileColorIndex: 0
      m_TileObjectToInstantiateIndex: 65535
      m_AllTileFlags: 1073741825
  - first: {x: 9, y: -10, z: 0}
    second:
      serializedVersion: 2
      m_TileIndex: 163
      m_TileSpriteIndex: 163
      m_TileMatrixIndex: 0
      m_TileColorIndex: 0
      m_TileObjectToInstantiateIndex: 65535
      m_AllTileFlags: 1073741825
  - first: {x: 10, y: -10, z: 0}
    second:
      serializedVersion: 2
      m_TileIndex: 164
      m_TileSpriteIndex: 164
      m_TileMatrixIndex: 0
      m_TileColorIndex: 0
      m_TileObjectToInstantiateIndex: 65535
      m_AllTileFlags: 1073741825
  - first: {x: 11, y: -10, z: 0}
    second:
      serializedVersion: 2
      m_TileIndex: 165
      m_TileSpriteIndex: 165
      m_TileMatrixIndex: 0
      m_TileColorIndex: 0
      m_TileObjectToInstantiateIndex: 65535
      m_AllTileFlags: 1073741825
  - first: {x: 12, y: -10, z: 0}
    second:
      serializedVersion: 2
      m_TileIndex: 166
      m_TileSpriteIndex: 166
      m_TileMatrixIndex: 0
      m_TileColorIndex: 0
      m_TileObjectToInstantiateIndex: 65535
      m_AllTileFlags: 1073741825
  - first: {x: 13, y: -10, z: 0}
    second:
      serializedVersion: 2
      m_TileIndex: 167
      m_TileSpriteIndex: 167
      m_TileMatrixIndex: 0
      m_TileColorIndex: 0
      m_TileObjectToInstantiateIndex: 65535
      m_AllTileFlags: 1073741825
  - first: {x: -2, y: -9, z: 0}
    second:
      serializedVersion: 2
      m_TileIndex: 146
      m_TileSpriteIndex: 146
      m_TileMatrixIndex: 0
      m_TileColorIndex: 0
      m_TileObjectToInstantiateIndex: 65535
      m_AllTileFlags: 1073741825
  - first: {x: -1, y: -9, z: 0}
    second:
      serializedVersion: 2
      m_TileIndex: 147
      m_TileSpriteIndex: 147
      m_TileMatrixIndex: 0
      m_TileColorIndex: 0
      m_TileObjectToInstantiateIndex: 65535
      m_AllTileFlags: 1073741825
  - first: {x: 0, y: -9, z: 0}
    second:
      serializedVersion: 2
      m_TileIndex: 148
      m_TileSpriteIndex: 148
      m_TileMatrixIndex: 0
      m_TileColorIndex: 0
      m_TileObjectToInstantiateIndex: 65535
      m_AllTileFlags: 1073741825
  - first: {x: 6, y: -9, z: 0}
    second:
      serializedVersion: 2
      m_TileIndex: 149
      m_TileSpriteIndex: 149
      m_TileMatrixIndex: 0
      m_TileColorIndex: 0
      m_TileObjectToInstantiateIndex: 65535
      m_AllTileFlags: 1073741825
  - first: {x: 8, y: -9, z: 0}
    second:
      serializedVersion: 2
      m_TileIndex: 150
      m_TileSpriteIndex: 150
      m_TileMatrixIndex: 0
      m_TileColorIndex: 0
      m_TileObjectToInstantiateIndex: 65535
      m_AllTileFlags: 1073741825
  - first: {x: 9, y: -9, z: 0}
    second:
      serializedVersion: 2
      m_TileIndex: 151
      m_TileSpriteIndex: 151
      m_TileMatrixIndex: 0
      m_TileColorIndex: 0
      m_TileObjectToInstantiateIndex: 65535
      m_AllTileFlags: 1073741825
  - first: {x: 10, y: -9, z: 0}
    second:
      serializedVersion: 2
      m_TileIndex: 152
      m_TileSpriteIndex: 152
      m_TileMatrixIndex: 0
      m_TileColorIndex: 0
      m_TileObjectToInstantiateIndex: 65535
      m_AllTileFlags: 1073741825
  - first: {x: 12, y: -9, z: 0}
    second:
      serializedVersion: 2
      m_TileIndex: 153
      m_TileSpriteIndex: 153
      m_TileMatrixIndex: 0
      m_TileColorIndex: 0
      m_TileObjectToInstantiateIndex: 65535
      m_AllTileFlags: 1073741825
  - first: {x: 13, y: -9, z: 0}
    second:
      serializedVersion: 2
      m_TileIndex: 154
      m_TileSpriteIndex: 154
      m_TileMatrixIndex: 0
      m_TileColorIndex: 0
      m_TileObjectToInstantiateIndex: 65535
      m_AllTileFlags: 1073741825
  - first: {x: -2, y: -8, z: 0}
    second:
      serializedVersion: 2
      m_TileIndex: 133
      m_TileSpriteIndex: 133
      m_TileMatrixIndex: 0
      m_TileColorIndex: 0
      m_TileObjectToInstantiateIndex: 65535
      m_AllTileFlags: 1073741825
  - first: {x: -1, y: -8, z: 0}
    second:
      serializedVersion: 2
      m_TileIndex: 134
      m_TileSpriteIndex: 134
      m_TileMatrixIndex: 0
      m_TileColorIndex: 0
      m_TileObjectToInstantiateIndex: 65535
      m_AllTileFlags: 1073741825
  - first: {x: 0, y: -8, z: 0}
    second:
      serializedVersion: 2
      m_TileIndex: 135
      m_TileSpriteIndex: 135
      m_TileMatrixIndex: 0
      m_TileColorIndex: 0
      m_TileObjectToInstantiateIndex: 65535
      m_AllTileFlags: 1073741825
  - first: {x: 1, y: -8, z: 0}
    second:
      serializedVersion: 2
      m_TileIndex: 136
      m_TileSpriteIndex: 136
      m_TileMatrixIndex: 0
      m_TileColorIndex: 0
      m_TileObjectToInstantiateIndex: 65535
      m_AllTileFlags: 1073741825
  - first: {x: 2, y: -8, z: 0}
    second:
      serializedVersion: 2
      m_TileIndex: 137
      m_TileSpriteIndex: 137
      m_TileMatrixIndex: 0
      m_TileColorIndex: 0
      m_TileObjectToInstantiateIndex: 65535
      m_AllTileFlags: 1073741825
  - first: {x: 3, y: -8, z: 0}
    second:
      serializedVersion: 2
      m_TileIndex: 138
      m_TileSpriteIndex: 138
      m_TileMatrixIndex: 0
      m_TileColorIndex: 0
      m_TileObjectToInstantiateIndex: 65535
      m_AllTileFlags: 1073741825
  - first: {x: 4, y: -8, z: 0}
    second:
      serializedVersion: 2
      m_TileIndex: 139
      m_TileSpriteIndex: 139
      m_TileMatrixIndex: 0
      m_TileColorIndex: 0
      m_TileObjectToInstantiateIndex: 65535
      m_AllTileFlags: 1073741825
  - first: {x: 5, y: -8, z: 0}
    second:
      serializedVersion: 2
      m_TileIndex: 140
      m_TileSpriteIndex: 140
      m_TileMatrixIndex: 0
      m_TileColorIndex: 0
      m_TileObjectToInstantiateIndex: 65535
      m_AllTileFlags: 1073741825
  - first: {x: 6, y: -8, z: 0}
    second:
      serializedVersion: 2
      m_TileIndex: 141
      m_TileSpriteIndex: 141
      m_TileMatrixIndex: 0
      m_TileColorIndex: 0
      m_TileObjectToInstantiateIndex: 65535
      m_AllTileFlags: 1073741825
  - first: {x: 8, y: -8, z: 0}
    second:
      serializedVersion: 2
      m_TileIndex: 142
      m_TileSpriteIndex: 142
      m_TileMatrixIndex: 0
      m_TileColorIndex: 0
      m_TileObjectToInstantiateIndex: 65535
      m_AllTileFlags: 1073741825
  - first: {x: 9, y: -8, z: 0}
    second:
      serializedVersion: 2
      m_TileIndex: 143
      m_TileSpriteIndex: 143
      m_TileMatrixIndex: 0
      m_TileColorIndex: 0
      m_TileObjectToInstantiateIndex: 65535
      m_AllTileFlags: 1073741825
  - first: {x: 10, y: -8, z: 0}
    second:
      serializedVersion: 2
      m_TileIndex: 144
      m_TileSpriteIndex: 144
      m_TileMatrixIndex: 0
      m_TileColorIndex: 0
      m_TileObjectToInstantiateIndex: 65535
      m_AllTileFlags: 1073741825
  - first: {x: 12, y: -8, z: 0}
    second:
      serializedVersion: 2
      m_TileIndex: 145
      m_TileSpriteIndex: 145
      m_TileMatrixIndex: 0
      m_TileColorIndex: 0
      m_TileObjectToInstantiateIndex: 65535
      m_AllTileFlags: 1073741825
  - first: {x: -2, y: -7, z: 0}
    second:
      serializedVersion: 2
      m_TileIndex: 118
      m_TileSpriteIndex: 118
      m_TileMatrixIndex: 0
      m_TileColorIndex: 0
      m_TileObjectToInstantiateIndex: 65535
      m_AllTileFlags: 1073741825
  - first: {x: -1, y: -7, z: 0}
    second:
      serializedVersion: 2
      m_TileIndex: 119
      m_TileSpriteIndex: 119
      m_TileMatrixIndex: 0
      m_TileColorIndex: 0
      m_TileObjectToInstantiateIndex: 65535
      m_AllTileFlags: 1073741825
  - first: {x: 0, y: -7, z: 0}
    second:
      serializedVersion: 2
      m_TileIndex: 120
      m_TileSpriteIndex: 120
      m_TileMatrixIndex: 0
      m_TileColorIndex: 0
      m_TileObjectToInstantiateIndex: 65535
      m_AllTileFlags: 1073741825
  - first: {x: 1, y: -7, z: 0}
    second:
      serializedVersion: 2
      m_TileIndex: 121
      m_TileSpriteIndex: 121
      m_TileMatrixIndex: 0
      m_TileColorIndex: 0
      m_TileObjectToInstantiateIndex: 65535
      m_AllTileFlags: 1073741825
  - first: {x: 2, y: -7, z: 0}
    second:
      serializedVersion: 2
      m_TileIndex: 122
      m_TileSpriteIndex: 122
      m_TileMatrixIndex: 0
      m_TileColorIndex: 0
      m_TileObjectToInstantiateIndex: 65535
      m_AllTileFlags: 1073741825
  - first: {x: 3, y: -7, z: 0}
    second:
      serializedVersion: 2
      m_TileIndex: 123
      m_TileSpriteIndex: 123
      m_TileMatrixIndex: 0
      m_TileColorIndex: 0
      m_TileObjectToInstantiateIndex: 65535
      m_AllTileFlags: 1073741825
  - first: {x: 4, y: -7, z: 0}
    second:
      serializedVersion: 2
      m_TileIndex: 124
      m_TileSpriteIndex: 124
      m_TileMatrixIndex: 0
      m_TileColorIndex: 0
      m_TileObjectToInstantiateIndex: 65535
      m_AllTileFlags: 1073741825
  - first: {x: 5, y: -7, z: 0}
    second:
      serializedVersion: 2
      m_TileIndex: 125
      m_TileSpriteIndex: 125
      m_TileMatrixIndex: 0
      m_TileColorIndex: 0
      m_TileObjectToInstantiateIndex: 65535
      m_AllTileFlags: 1073741825
  - first: {x: 6, y: -7, z: 0}
    second:
      serializedVersion: 2
      m_TileIndex: 126
      m_TileSpriteIndex: 126
      m_TileMatrixIndex: 0
      m_TileColorIndex: 0
      m_TileObjectToInstantiateIndex: 65535
      m_AllTileFlags: 1073741825
  - first: {x: 7, y: -7, z: 0}
    second:
      serializedVersion: 2
      m_TileIndex: 127
      m_TileSpriteIndex: 127
      m_TileMatrixIndex: 0
      m_TileColorIndex: 0
      m_TileObjectToInstantiateIndex: 65535
      m_AllTileFlags: 1073741825
  - first: {x: 8, y: -7, z: 0}
    second:
      serializedVersion: 2
      m_TileIndex: 128
      m_TileSpriteIndex: 128
      m_TileMatrixIndex: 0
      m_TileColorIndex: 0
      m_TileObjectToInstantiateIndex: 65535
      m_AllTileFlags: 1073741825
  - first: {x: 9, y: -7, z: 0}
    second:
      serializedVersion: 2
      m_TileIndex: 129
      m_TileSpriteIndex: 129
      m_TileMatrixIndex: 0
      m_TileColorIndex: 0
      m_TileObjectToInstantiateIndex: 65535
      m_AllTileFlags: 1073741825
  - first: {x: 10, y: -7, z: 0}
    second:
      serializedVersion: 2
      m_TileIndex: 130
      m_TileSpriteIndex: 130
      m_TileMatrixIndex: 0
      m_TileColorIndex: 0
      m_TileObjectToInstantiateIndex: 65535
      m_AllTileFlags: 1073741825
  - first: {x: 11, y: -7, z: 0}
    second:
      serializedVersion: 2
      m_TileIndex: 131
      m_TileSpriteIndex: 131
      m_TileMatrixIndex: 0
      m_TileColorIndex: 0
      m_TileObjectToInstantiateIndex: 65535
      m_AllTileFlags: 1073741825
  - first: {x: 12, y: -7, z: 0}
    second:
      serializedVersion: 2
      m_TileIndex: 132
      m_TileSpriteIndex: 132
      m_TileMatrixIndex: 0
      m_TileColorIndex: 0
      m_TileObjectToInstantiateIndex: 65535
      m_AllTileFlags: 1073741825
  - first: {x: -2, y: -6, z: 0}
    second:
      serializedVersion: 2
      m_TileIndex: 106
      m_TileSpriteIndex: 106
      m_TileMatrixIndex: 0
      m_TileColorIndex: 0
      m_TileObjectToInstantiateIndex: 65535
      m_AllTileFlags: 1073741825
  - first: {x: -1, y: -6, z: 0}
    second:
      serializedVersion: 2
      m_TileIndex: 107
      m_TileSpriteIndex: 107
      m_TileMatrixIndex: 0
      m_TileColorIndex: 0
      m_TileObjectToInstantiateIndex: 65535
      m_AllTileFlags: 1073741825
  - first: {x: 0, y: -6, z: 0}
    second:
      serializedVersion: 2
      m_TileIndex: 108
      m_TileSpriteIndex: 108
      m_TileMatrixIndex: 0
      m_TileColorIndex: 0
      m_TileObjectToInstantiateIndex: 65535
      m_AllTileFlags: 1073741825
  - first: {x: 3, y: -6, z: 0}
    second:
      serializedVersion: 2
      m_TileIndex: 109
      m_TileSpriteIndex: 109
      m_TileMatrixIndex: 0
      m_TileColorIndex: 0
      m_TileObjectToInstantiateIndex: 65535
      m_AllTileFlags: 1073741825
  - first: {x: 4, y: -6, z: 0}
    second:
      serializedVersion: 2
      m_TileIndex: 110
      m_TileSpriteIndex: 110
      m_TileMatrixIndex: 0
      m_TileColorIndex: 0
      m_TileObjectToInstantiateIndex: 65535
      m_AllTileFlags: 1073741825
  - first: {x: 5, y: -6, z: 0}
    second:
      serializedVersion: 2
      m_TileIndex: 111
      m_TileSpriteIndex: 111
      m_TileMatrixIndex: 0
      m_TileColorIndex: 0
      m_TileObjectToInstantiateIndex: 65535
      m_AllTileFlags: 1073741825
  - first: {x: 6, y: -6, z: 0}
    second:
      serializedVersion: 2
      m_TileIndex: 112
      m_TileSpriteIndex: 112
      m_TileMatrixIndex: 0
      m_TileColorIndex: 0
      m_TileObjectToInstantiateIndex: 65535
      m_AllTileFlags: 1073741825
  - first: {x: 8, y: -6, z: 0}
    second:
      serializedVersion: 2
      m_TileIndex: 113
      m_TileSpriteIndex: 113
      m_TileMatrixIndex: 0
      m_TileColorIndex: 0
      m_TileObjectToInstantiateIndex: 65535
      m_AllTileFlags: 1073741825
  - first: {x: 9, y: -6, z: 0}
    second:
      serializedVersion: 2
      m_TileIndex: 114
      m_TileSpriteIndex: 114
      m_TileMatrixIndex: 0
      m_TileColorIndex: 0
      m_TileObjectToInstantiateIndex: 65535
      m_AllTileFlags: 1073741825
  - first: {x: 10, y: -6, z: 0}
    second:
      serializedVersion: 2
      m_TileIndex: 115
      m_TileSpriteIndex: 115
      m_TileMatrixIndex: 0
      m_TileColorIndex: 0
      m_TileObjectToInstantiateIndex: 65535
      m_AllTileFlags: 1073741825
  - first: {x: 11, y: -6, z: 0}
    second:
      serializedVersion: 2
      m_TileIndex: 116
      m_TileSpriteIndex: 116
      m_TileMatrixIndex: 0
      m_TileColorIndex: 0
      m_TileObjectToInstantiateIndex: 65535
      m_AllTileFlags: 1073741825
  - first: {x: 12, y: -6, z: 0}
    second:
      serializedVersion: 2
      m_TileIndex: 117
      m_TileSpriteIndex: 117
      m_TileMatrixIndex: 0
      m_TileColorIndex: 0
      m_TileObjectToInstantiateIndex: 65535
      m_AllTileFlags: 1073741825
  - first: {x: -2, y: -5, z: 0}
    second:
      serializedVersion: 2
      m_TileIndex: 91
      m_TileSpriteIndex: 91
      m_TileMatrixIndex: 0
      m_TileColorIndex: 0
      m_TileObjectToInstantiateIndex: 65535
      m_AllTileFlags: 1073741825
  - first: {x: -1, y: -5, z: 0}
    second:
      serializedVersion: 2
      m_TileIndex: 92
      m_TileSpriteIndex: 92
      m_TileMatrixIndex: 0
      m_TileColorIndex: 0
      m_TileObjectToInstantiateIndex: 65535
      m_AllTileFlags: 1073741825
  - first: {x: 0, y: -5, z: 0}
    second:
      serializedVersion: 2
      m_TileIndex: 93
      m_TileSpriteIndex: 93
      m_TileMatrixIndex: 0
      m_TileColorIndex: 0
      m_TileObjectToInstantiateIndex: 65535
      m_AllTileFlags: 1073741825
  - first: {x: 1, y: -5, z: 0}
    second:
      serializedVersion: 2
      m_TileIndex: 94
      m_TileSpriteIndex: 94
      m_TileMatrixIndex: 0
      m_TileColorIndex: 0
      m_TileObjectToInstantiateIndex: 65535
      m_AllTileFlags: 1073741825
  - first: {x: 2, y: -5, z: 0}
    second:
      serializedVersion: 2
      m_TileIndex: 95
      m_TileSpriteIndex: 95
      m_TileMatrixIndex: 0
      m_TileColorIndex: 0
      m_TileObjectToInstantiateIndex: 65535
      m_AllTileFlags: 1073741825
  - first: {x: 3, y: -5, z: 0}
    second:
      serializedVersion: 2
      m_TileIndex: 96
      m_TileSpriteIndex: 96
      m_TileMatrixIndex: 0
      m_TileColorIndex: 0
      m_TileObjectToInstantiateIndex: 65535
      m_AllTileFlags: 1073741825
  - first: {x: 4, y: -5, z: 0}
    second:
      serializedVersion: 2
      m_TileIndex: 97
      m_TileSpriteIndex: 97
      m_TileMatrixIndex: 0
      m_TileColorIndex: 0
      m_TileObjectToInstantiateIndex: 65535
      m_AllTileFlags: 1073741825
  - first: {x: 5, y: -5, z: 0}
    second:
      serializedVersion: 2
      m_TileIndex: 98
      m_TileSpriteIndex: 98
      m_TileMatrixIndex: 0
      m_TileColorIndex: 0
      m_TileObjectToInstantiateIndex: 65535
      m_AllTileFlags: 1073741825
  - first: {x: 6, y: -5, z: 0}
    second:
      serializedVersion: 2
      m_TileIndex: 99
      m_TileSpriteIndex: 99
      m_TileMatrixIndex: 0
      m_TileColorIndex: 0
      m_TileObjectToInstantiateIndex: 65535
      m_AllTileFlags: 1073741825
  - first: {x: 8, y: -5, z: 0}
    second:
      serializedVersion: 2
      m_TileIndex: 100
      m_TileSpriteIndex: 100
      m_TileMatrixIndex: 0
      m_TileColorIndex: 0
      m_TileObjectToInstantiateIndex: 65535
      m_AllTileFlags: 1073741825
  - first: {x: 9, y: -5, z: 0}
    second:
      serializedVersion: 2
      m_TileIndex: 101
      m_TileSpriteIndex: 101
      m_TileMatrixIndex: 0
      m_TileColorIndex: 0
      m_TileObjectToInstantiateIndex: 65535
      m_AllTileFlags: 1073741825
  - first: {x: 10, y: -5, z: 0}
    second:
      serializedVersion: 2
      m_TileIndex: 102
      m_TileSpriteIndex: 102
      m_TileMatrixIndex: 0
      m_TileColorIndex: 0
      m_TileObjectToInstantiateIndex: 65535
      m_AllTileFlags: 1073741825
  - first: {x: 11, y: -5, z: 0}
    second:
      serializedVersion: 2
      m_TileIndex: 103
      m_TileSpriteIndex: 103
      m_TileMatrixIndex: 0
      m_TileColorIndex: 0
      m_TileObjectToInstantiateIndex: 65535
      m_AllTileFlags: 1073741825
  - first: {x: 12, y: -5, z: 0}
    second:
      serializedVersion: 2
      m_TileIndex: 104
      m_TileSpriteIndex: 104
      m_TileMatrixIndex: 0
      m_TileColorIndex: 0
      m_TileObjectToInstantiateIndex: 65535
      m_AllTileFlags: 1073741825
  - first: {x: 13, y: -5, z: 0}
    second:
      serializedVersion: 2
      m_TileIndex: 105
      m_TileSpriteIndex: 105
      m_TileMatrixIndex: 0
      m_TileColorIndex: 0
      m_TileObjectToInstantiateIndex: 65535
      m_AllTileFlags: 1073741825
  - first: {x: -2, y: -4, z: 0}
    second:
      serializedVersion: 2
      m_TileIndex: 75
      m_TileSpriteIndex: 75
      m_TileMatrixIndex: 0
      m_TileColorIndex: 0
      m_TileObjectToInstantiateIndex: 65535
      m_AllTileFlags: 1073741825
  - first: {x: -1, y: -4, z: 0}
    second:
      serializedVersion: 2
      m_TileIndex: 76
      m_TileSpriteIndex: 76
      m_TileMatrixIndex: 0
      m_TileColorIndex: 0
      m_TileObjectToInstantiateIndex: 65535
      m_AllTileFlags: 1073741825
  - first: {x: 0, y: -4, z: 0}
    second:
      serializedVersion: 2
      m_TileIndex: 77
      m_TileSpriteIndex: 77
      m_TileMatrixIndex: 0
      m_TileColorIndex: 0
      m_TileObjectToInstantiateIndex: 65535
      m_AllTileFlags: 1073741825
  - first: {x: 1, y: -4, z: 0}
    second:
      serializedVersion: 2
      m_TileIndex: 78
      m_TileSpriteIndex: 78
      m_TileMatrixIndex: 0
      m_TileColorIndex: 0
      m_TileObjectToInstantiateIndex: 65535
      m_AllTileFlags: 1073741825
  - first: {x: 2, y: -4, z: 0}
    second:
      serializedVersion: 2
      m_TileIndex: 79
      m_TileSpriteIndex: 79
      m_TileMatrixIndex: 0
      m_TileColorIndex: 0
      m_TileObjectToInstantiateIndex: 65535
      m_AllTileFlags: 1073741825
  - first: {x: 3, y: -4, z: 0}
    second:
      serializedVersion: 2
      m_TileIndex: 80
      m_TileSpriteIndex: 80
      m_TileMatrixIndex: 0
      m_TileColorIndex: 0
      m_TileObjectToInstantiateIndex: 65535
      m_AllTileFlags: 1073741825
  - first: {x: 4, y: -4, z: 0}
    second:
      serializedVersion: 2
      m_TileIndex: 81
      m_TileSpriteIndex: 81
      m_TileMatrixIndex: 0
      m_TileColorIndex: 0
      m_TileObjectToInstantiateIndex: 65535
      m_AllTileFlags: 1073741825
  - first: {x: 5, y: -4, z: 0}
    second:
      serializedVersion: 2
      m_TileIndex: 82
      m_TileSpriteIndex: 82
      m_TileMatrixIndex: 0
      m_TileColorIndex: 0
      m_TileObjectToInstantiateIndex: 65535
      m_AllTileFlags: 1073741825
  - first: {x: 6, y: -4, z: 0}
    second:
      serializedVersion: 2
      m_TileIndex: 83
      m_TileSpriteIndex: 83
      m_TileMatrixIndex: 0
      m_TileColorIndex: 0
      m_TileObjectToInstantiateIndex: 65535
      m_AllTileFlags: 1073741825
  - first: {x: 7, y: -4, z: 0}
    second:
      serializedVersion: 2
      m_TileIndex: 84
      m_TileSpriteIndex: 84
      m_TileMatrixIndex: 0
      m_TileColorIndex: 0
      m_TileObjectToInstantiateIndex: 65535
      m_AllTileFlags: 1073741825
  - first: {x: 8, y: -4, z: 0}
    second:
      serializedVersion: 2
      m_TileIndex: 85
      m_TileSpriteIndex: 85
      m_TileMatrixIndex: 0
      m_TileColorIndex: 0
      m_TileObjectToInstantiateIndex: 65535
      m_AllTileFlags: 1073741825
  - first: {x: 9, y: -4, z: 0}
    second:
      serializedVersion: 2
      m_TileIndex: 86
      m_TileSpriteIndex: 86
      m_TileMatrixIndex: 0
      m_TileColorIndex: 0
      m_TileObjectToInstantiateIndex: 65535
      m_AllTileFlags: 1073741825
  - first: {x: 10, y: -4, z: 0}
    second:
      serializedVersion: 2
      m_TileIndex: 87
      m_TileSpriteIndex: 87
      m_TileMatrixIndex: 0
      m_TileColorIndex: 0
      m_TileObjectToInstantiateIndex: 65535
      m_AllTileFlags: 1073741825
  - first: {x: 11, y: -4, z: 0}
    second:
      serializedVersion: 2
      m_TileIndex: 88
      m_TileSpriteIndex: 88
      m_TileMatrixIndex: 0
      m_TileColorIndex: 0
      m_TileObjectToInstantiateIndex: 65535
      m_AllTileFlags: 1073741825
  - first: {x: 12, y: -4, z: 0}
    second:
      serializedVersion: 2
      m_TileIndex: 89
      m_TileSpriteIndex: 89
      m_TileMatrixIndex: 0
      m_TileColorIndex: 0
      m_TileObjectToInstantiateIndex: 65535
      m_AllTileFlags: 1073741825
  - first: {x: 13, y: -4, z: 0}
    second:
      serializedVersion: 2
      m_TileIndex: 90
      m_TileSpriteIndex: 90
      m_TileMatrixIndex: 0
      m_TileColorIndex: 0
      m_TileObjectToInstantiateIndex: 65535
      m_AllTileFlags: 1073741825
  - first: {x: -2, y: -3, z: 0}
    second:
      serializedVersion: 2
      m_TileIndex: 61
      m_TileSpriteIndex: 61
      m_TileMatrixIndex: 0
      m_TileColorIndex: 0
      m_TileObjectToInstantiateIndex: 65535
      m_AllTileFlags: 1073741825
  - first: {x: -1, y: -3, z: 0}
    second:
      serializedVersion: 2
      m_TileIndex: 62
      m_TileSpriteIndex: 62
      m_TileMatrixIndex: 0
      m_TileColorIndex: 0
      m_TileObjectToInstantiateIndex: 65535
      m_AllTileFlags: 1073741825
  - first: {x: 0, y: -3, z: 0}
    second:
      serializedVersion: 2
      m_TileIndex: 63
      m_TileSpriteIndex: 63
      m_TileMatrixIndex: 0
      m_TileColorIndex: 0
      m_TileObjectToInstantiateIndex: 65535
      m_AllTileFlags: 1073741825
  - first: {x: 3, y: -3, z: 0}
    second:
      serializedVersion: 2
      m_TileIndex: 64
      m_TileSpriteIndex: 64
      m_TileMatrixIndex: 0
      m_TileColorIndex: 0
      m_TileObjectToInstantiateIndex: 65535
      m_AllTileFlags: 1073741825
  - first: {x: 4, y: -3, z: 0}
    second:
      serializedVersion: 2
      m_TileIndex: 65
      m_TileSpriteIndex: 65
      m_TileMatrixIndex: 0
      m_TileColorIndex: 0
      m_TileObjectToInstantiateIndex: 65535
      m_AllTileFlags: 1073741825
  - first: {x: 5, y: -3, z: 0}
    second:
      serializedVersion: 2
      m_TileIndex: 66
      m_TileSpriteIndex: 66
      m_TileMatrixIndex: 0
      m_TileColorIndex: 0
      m_TileObjectToInstantiateIndex: 65535
      m_AllTileFlags: 1073741825
  - first: {x: 6, y: -3, z: 0}
    second:
      serializedVersion: 2
      m_TileIndex: 67
      m_TileSpriteIndex: 67
      m_TileMatrixIndex: 0
      m_TileColorIndex: 0
      m_TileObjectToInstantiateIndex: 65535
      m_AllTileFlags: 1073741825
  - first: {x: 7, y: -3, z: 0}
    second:
      serializedVersion: 2
      m_TileIndex: 68
      m_TileSpriteIndex: 68
      m_TileMatrixIndex: 0
      m_TileColorIndex: 0
      m_TileObjectToInstantiateIndex: 65535
      m_AllTileFlags: 1073741825
  - first: {x: 8, y: -3, z: 0}
    second:
      serializedVersion: 2
      m_TileIndex: 69
      m_TileSpriteIndex: 69
      m_TileMatrixIndex: 0
      m_TileColorIndex: 0
      m_TileObjectToInstantiateIndex: 65535
      m_AllTileFlags: 1073741825
  - first: {x: 9, y: -3, z: 0}
    second:
      serializedVersion: 2
      m_TileIndex: 70
      m_TileSpriteIndex: 70
      m_TileMatrixIndex: 0
      m_TileColorIndex: 0
      m_TileObjectToInstantiateIndex: 65535
      m_AllTileFlags: 1073741825
  - first: {x: 10, y: -3, z: 0}
    second:
      serializedVersion: 2
      m_TileIndex: 71
      m_TileSpriteIndex: 71
      m_TileMatrixIndex: 0
      m_TileColorIndex: 0
      m_TileObjectToInstantiateIndex: 65535
      m_AllTileFlags: 1073741825
  - first: {x: 11, y: -3, z: 0}
    second:
      serializedVersion: 2
      m_TileIndex: 72
      m_TileSpriteIndex: 72
      m_TileMatrixIndex: 0
      m_TileColorIndex: 0
      m_TileObjectToInstantiateIndex: 65535
      m_AllTileFlags: 1073741825
  - first: {x: 12, y: -3, z: 0}
    second:
      serializedVersion: 2
      m_TileIndex: 73
      m_TileSpriteIndex: 73
      m_TileMatrixIndex: 0
      m_TileColorIndex: 0
      m_TileObjectToInstantiateIndex: 65535
      m_AllTileFlags: 1073741825
  - first: {x: 13, y: -3, z: 0}
    second:
      serializedVersion: 2
      m_TileIndex: 74
      m_TileSpriteIndex: 74
      m_TileMatrixIndex: 0
      m_TileColorIndex: 0
      m_TileObjectToInstantiateIndex: 65535
      m_AllTileFlags: 1073741825
  - first: {x: -2, y: -2, z: 0}
    second:
      serializedVersion: 2
      m_TileIndex: 45
      m_TileSpriteIndex: 45
      m_TileMatrixIndex: 0
      m_TileColorIndex: 0
      m_TileObjectToInstantiateIndex: 65535
      m_AllTileFlags: 1073741825
  - first: {x: -1, y: -2, z: 0}
    second:
      serializedVersion: 2
      m_TileIndex: 46
      m_TileSpriteIndex: 46
      m_TileMatrixIndex: 0
      m_TileColorIndex: 0
      m_TileObjectToInstantiateIndex: 65535
      m_AllTileFlags: 1073741825
  - first: {x: 0, y: -2, z: 0}
    second:
      serializedVersion: 2
      m_TileIndex: 47
      m_TileSpriteIndex: 47
      m_TileMatrixIndex: 0
      m_TileColorIndex: 0
      m_TileObjectToInstantiateIndex: 65535
      m_AllTileFlags: 1073741825
  - first: {x: 1, y: -2, z: 0}
    second:
      serializedVersion: 2
      m_TileIndex: 48
      m_TileSpriteIndex: 48
      m_TileMatrixIndex: 0
      m_TileColorIndex: 0
      m_TileObjectToInstantiateIndex: 65535
      m_AllTileFlags: 1073741825
  - first: {x: 2, y: -2, z: 0}
    second:
      serializedVersion: 2
      m_TileIndex: 49
      m_TileSpriteIndex: 49
      m_TileMatrixIndex: 0
      m_TileColorIndex: 0
      m_TileObjectToInstantiateIndex: 65535
      m_AllTileFlags: 1073741825
  - first: {x: 3, y: -2, z: 0}
    second:
      serializedVersion: 2
      m_TileIndex: 50
      m_TileSpriteIndex: 50
      m_TileMatrixIndex: 0
      m_TileColorIndex: 0
      m_TileObjectToInstantiateIndex: 65535
      m_AllTileFlags: 1073741825
  - first: {x: 4, y: -2, z: 0}
    second:
      serializedVersion: 2
      m_TileIndex: 51
      m_TileSpriteIndex: 51
      m_TileMatrixIndex: 0
      m_TileColorIndex: 0
      m_TileObjectToInstantiateIndex: 65535
      m_AllTileFlags: 1073741825
  - first: {x: 5, y: -2, z: 0}
    second:
      serializedVersion: 2
      m_TileIndex: 52
      m_TileSpriteIndex: 52
      m_TileMatrixIndex: 0
      m_TileColorIndex: 0
      m_TileObjectToInstantiateIndex: 65535
      m_AllTileFlags: 1073741825
  - first: {x: 6, y: -2, z: 0}
    second:
      serializedVersion: 2
      m_TileIndex: 53
      m_TileSpriteIndex: 53
      m_TileMatrixIndex: 0
      m_TileColorIndex: 0
      m_TileObjectToInstantiateIndex: 65535
      m_AllTileFlags: 1073741825
  - first: {x: 7, y: -2, z: 0}
    second:
      serializedVersion: 2
      m_TileIndex: 54
      m_TileSpriteIndex: 54
      m_TileMatrixIndex: 0
      m_TileColorIndex: 0
      m_TileObjectToInstantiateIndex: 65535
      m_AllTileFlags: 1073741825
  - first: {x: 8, y: -2, z: 0}
    second:
      serializedVersion: 2
      m_TileIndex: 55
      m_TileSpriteIndex: 55
      m_TileMatrixIndex: 0
      m_TileColorIndex: 0
      m_TileObjectToInstantiateIndex: 65535
      m_AllTileFlags: 1073741825
  - first: {x: 9, y: -2, z: 0}
    second:
      serializedVersion: 2
      m_TileIndex: 56
      m_TileSpriteIndex: 56
      m_TileMatrixIndex: 0
      m_TileColorIndex: 0
      m_TileObjectToInstantiateIndex: 65535
      m_AllTileFlags: 1073741825
  - first: {x: 10, y: -2, z: 0}
    second:
      serializedVersion: 2
      m_TileIndex: 57
      m_TileSpriteIndex: 57
      m_TileMatrixIndex: 0
      m_TileColorIndex: 0
      m_TileObjectToInstantiateIndex: 65535
      m_AllTileFlags: 1073741825
  - first: {x: 11, y: -2, z: 0}
    second:
      serializedVersion: 2
      m_TileIndex: 58
      m_TileSpriteIndex: 58
      m_TileMatrixIndex: 0
      m_TileColorIndex: 0
      m_TileObjectToInstantiateIndex: 65535
      m_AllTileFlags: 1073741825
  - first: {x: 12, y: -2, z: 0}
    second:
      serializedVersion: 2
      m_TileIndex: 59
      m_TileSpriteIndex: 59
      m_TileMatrixIndex: 0
      m_TileColorIndex: 0
      m_TileObjectToInstantiateIndex: 65535
      m_AllTileFlags: 1073741825
  - first: {x: 13, y: -2, z: 0}
    second:
      serializedVersion: 2
      m_TileIndex: 60
      m_TileSpriteIndex: 60
      m_TileMatrixIndex: 0
      m_TileColorIndex: 0
      m_TileObjectToInstantiateIndex: 65535
      m_AllTileFlags: 1073741825
  - first: {x: -2, y: -1, z: 0}
    second:
      serializedVersion: 2
      m_TileIndex: 30
      m_TileSpriteIndex: 30
      m_TileMatrixIndex: 0
      m_TileColorIndex: 0
      m_TileObjectToInstantiateIndex: 65535
      m_AllTileFlags: 1073741825
  - first: {x: -1, y: -1, z: 0}
    second:
      serializedVersion: 2
      m_TileIndex: 31
      m_TileSpriteIndex: 31
      m_TileMatrixIndex: 0
      m_TileColorIndex: 0
      m_TileObjectToInstantiateIndex: 65535
      m_AllTileFlags: 1073741825
  - first: {x: 0, y: -1, z: 0}
    second:
      serializedVersion: 2
      m_TileIndex: 32
      m_TileSpriteIndex: 32
      m_TileMatrixIndex: 0
      m_TileColorIndex: 0
      m_TileObjectToInstantiateIndex: 65535
      m_AllTileFlags: 1073741825
  - first: {x: 1, y: -1, z: 0}
    second:
      serializedVersion: 2
      m_TileIndex: 33
      m_TileSpriteIndex: 33
      m_TileMatrixIndex: 0
      m_TileColorIndex: 0
      m_TileObjectToInstantiateIndex: 65535
      m_AllTileFlags: 1073741825
  - first: {x: 2, y: -1, z: 0}
    second:
      serializedVersion: 2
      m_TileIndex: 34
      m_TileSpriteIndex: 34
      m_TileMatrixIndex: 0
      m_TileColorIndex: 0
      m_TileObjectToInstantiateIndex: 65535
      m_AllTileFlags: 1073741825
  - first: {x: 3, y: -1, z: 0}
    second:
      serializedVersion: 2
      m_TileIndex: 35
      m_TileSpriteIndex: 35
      m_TileMatrixIndex: 0
      m_TileColorIndex: 0
      m_TileObjectToInstantiateIndex: 65535
      m_AllTileFlags: 1073741825
  - first: {x: 4, y: -1, z: 0}
    second:
      serializedVersion: 2
      m_TileIndex: 36
      m_TileSpriteIndex: 36
      m_TileMatrixIndex: 0
      m_TileColorIndex: 0
      m_TileObjectToInstantiateIndex: 65535
      m_AllTileFlags: 1073741825
  - first: {x: 5, y: -1, z: 0}
    second:
      serializedVersion: 2
      m_TileIndex: 37
      m_TileSpriteIndex: 37
      m_TileMatrixIndex: 0
      m_TileColorIndex: 0
      m_TileObjectToInstantiateIndex: 65535
      m_AllTileFlags: 1073741825
  - first: {x: 6, y: -1, z: 0}
    second:
      serializedVersion: 2
      m_TileIndex: 38
      m_TileSpriteIndex: 38
      m_TileMatrixIndex: 0
      m_TileColorIndex: 0
      m_TileObjectToInstantiateIndex: 65535
      m_AllTileFlags: 1073741825
  - first: {x: 7, y: -1, z: 0}
    second:
      serializedVersion: 2
      m_TileIndex: 39
      m_TileSpriteIndex: 39
      m_TileMatrixIndex: 0
      m_TileColorIndex: 0
      m_TileObjectToInstantiateIndex: 65535
      m_AllTileFlags: 1073741825
  - first: {x: 8, y: -1, z: 0}
    second:
      serializedVersion: 2
      m_TileIndex: 40
      m_TileSpriteIndex: 40
      m_TileMatrixIndex: 0
      m_TileColorIndex: 0
      m_TileObjectToInstantiateIndex: 65535
      m_AllTileFlags: 1073741825
  - first: {x: 9, y: -1, z: 0}
    second:
      serializedVersion: 2
      m_TileIndex: 41
      m_TileSpriteIndex: 41
      m_TileMatrixIndex: 0
      m_TileColorIndex: 0
      m_TileObjectToInstantiateIndex: 65535
      m_AllTileFlags: 1073741825
  - first: {x: 10, y: -1, z: 0}
    second:
      serializedVersion: 2
      m_TileIndex: 42
      m_TileSpriteIndex: 42
      m_TileMatrixIndex: 0
      m_TileColorIndex: 0
      m_TileObjectToInstantiateIndex: 65535
      m_AllTileFlags: 1073741825
  - first: {x: 11, y: -1, z: 0}
    second:
      serializedVersion: 2
      m_TileIndex: 43
      m_TileSpriteIndex: 43
      m_TileMatrixIndex: 0
      m_TileColorIndex: 0
      m_TileObjectToInstantiateIndex: 65535
      m_AllTileFlags: 1073741825
  - first: {x: 12, y: -1, z: 0}
    second:
      serializedVersion: 2
      m_TileIndex: 44
      m_TileSpriteIndex: 44
      m_TileMatrixIndex: 0
      m_TileColorIndex: 0
      m_TileObjectToInstantiateIndex: 65535
      m_AllTileFlags: 1073741825
  - first: {x: -2, y: 0, z: 0}
    second:
      serializedVersion: 2
      m_TileIndex: 15
      m_TileSpriteIndex: 15
      m_TileMatrixIndex: 0
      m_TileColorIndex: 0
      m_TileObjectToInstantiateIndex: 65535
      m_AllTileFlags: 1073741825
  - first: {x: -1, y: 0, z: 0}
    second:
      serializedVersion: 2
      m_TileIndex: 16
      m_TileSpriteIndex: 16
      m_TileMatrixIndex: 0
      m_TileColorIndex: 0
      m_TileObjectToInstantiateIndex: 65535
      m_AllTileFlags: 1073741825
  - first: {x: 0, y: 0, z: 0}
    second:
      serializedVersion: 2
      m_TileIndex: 17
      m_TileSpriteIndex: 17
      m_TileMatrixIndex: 0
      m_TileColorIndex: 0
      m_TileObjectToInstantiateIndex: 65535
      m_AllTileFlags: 1073741825
  - first: {x: 1, y: 0, z: 0}
    second:
      serializedVersion: 2
      m_TileIndex: 18
      m_TileSpriteIndex: 18
      m_TileMatrixIndex: 0
      m_TileColorIndex: 0
      m_TileObjectToInstantiateIndex: 65535
      m_AllTileFlags: 1073741825
  - first: {x: 2, y: 0, z: 0}
    second:
      serializedVersion: 2
      m_TileIndex: 19
      m_TileSpriteIndex: 19
      m_TileMatrixIndex: 0
      m_TileColorIndex: 0
      m_TileObjectToInstantiateIndex: 65535
      m_AllTileFlags: 1073741825
  - first: {x: 3, y: 0, z: 0}
    second:
      serializedVersion: 2
      m_TileIndex: 20
      m_TileSpriteIndex: 20
      m_TileMatrixIndex: 0
      m_TileColorIndex: 0
      m_TileObjectToInstantiateIndex: 65535
      m_AllTileFlags: 1073741825
  - first: {x: 4, y: 0, z: 0}
    second:
      serializedVersion: 2
      m_TileIndex: 21
      m_TileSpriteIndex: 21
      m_TileMatrixIndex: 0
      m_TileColorIndex: 0
      m_TileObjectToInstantiateIndex: 65535
      m_AllTileFlags: 1073741825
  - first: {x: 5, y: 0, z: 0}
    second:
      serializedVersion: 2
      m_TileIndex: 22
      m_TileSpriteIndex: 22
      m_TileMatrixIndex: 0
      m_TileColorIndex: 0
      m_TileObjectToInstantiateIndex: 65535
      m_AllTileFlags: 1073741825
  - first: {x: 6, y: 0, z: 0}
    second:
      serializedVersion: 2
      m_TileIndex: 23
      m_TileSpriteIndex: 23
      m_TileMatrixIndex: 0
      m_TileColorIndex: 0
      m_TileObjectToInstantiateIndex: 65535
      m_AllTileFlags: 1073741825
  - first: {x: 7, y: 0, z: 0}
    second:
      serializedVersion: 2
      m_TileIndex: 24
      m_TileSpriteIndex: 24
      m_TileMatrixIndex: 0
      m_TileColorIndex: 0
      m_TileObjectToInstantiateIndex: 65535
      m_AllTileFlags: 1073741825
  - first: {x: 8, y: 0, z: 0}
    second:
      serializedVersion: 2
      m_TileIndex: 25
      m_TileSpriteIndex: 25
      m_TileMatrixIndex: 0
      m_TileColorIndex: 0
      m_TileObjectToInstantiateIndex: 65535
      m_AllTileFlags: 1073741825
  - first: {x: 9, y: 0, z: 0}
    second:
      serializedVersion: 2
      m_TileIndex: 26
      m_TileSpriteIndex: 26
      m_TileMatrixIndex: 0
      m_TileColorIndex: 0
      m_TileObjectToInstantiateIndex: 65535
      m_AllTileFlags: 1073741825
  - first: {x: 10, y: 0, z: 0}
    second:
      serializedVersion: 2
      m_TileIndex: 27
      m_TileSpriteIndex: 27
      m_TileMatrixIndex: 0
      m_TileColorIndex: 0
      m_TileObjectToInstantiateIndex: 65535
      m_AllTileFlags: 1073741825
  - first: {x: 11, y: 0, z: 0}
    second:
      serializedVersion: 2
      m_TileIndex: 28
      m_TileSpriteIndex: 28
      m_TileMatrixIndex: 0
      m_TileColorIndex: 0
      m_TileObjectToInstantiateIndex: 65535
      m_AllTileFlags: 1073741825
  - first: {x: 12, y: 0, z: 0}
    second:
      serializedVersion: 2
      m_TileIndex: 29
      m_TileSpriteIndex: 29
      m_TileMatrixIndex: 0
      m_TileColorIndex: 0
      m_TileObjectToInstantiateIndex: 65535
      m_AllTileFlags: 1073741825
  - first: {x: -2, y: 1, z: 0}
    second:
      serializedVersion: 2
      m_TileIndex: 0
      m_TileSpriteIndex: 0
      m_TileMatrixIndex: 0
      m_TileColorIndex: 0
      m_TileObjectToInstantiateIndex: 65535
      m_AllTileFlags: 1073741825
  - first: {x: -1, y: 1, z: 0}
    second:
      serializedVersion: 2
      m_TileIndex: 1
      m_TileSpriteIndex: 1
      m_TileMatrixIndex: 0
      m_TileColorIndex: 0
      m_TileObjectToInstantiateIndex: 65535
      m_AllTileFlags: 1073741825
  - first: {x: 0, y: 1, z: 0}
    second:
      serializedVersion: 2
      m_TileIndex: 2
      m_TileSpriteIndex: 2
      m_TileMatrixIndex: 0
      m_TileColorIndex: 0
      m_TileObjectToInstantiateIndex: 65535
      m_AllTileFlags: 1073741825
  - first: {x: 1, y: 1, z: 0}
    second:
      serializedVersion: 2
      m_TileIndex: 3
      m_TileSpriteIndex: 3
      m_TileMatrixIndex: 0
      m_TileColorIndex: 0
      m_TileObjectToInstantiateIndex: 65535
      m_AllTileFlags: 1073741825
  - first: {x: 2, y: 1, z: 0}
    second:
      serializedVersion: 2
      m_TileIndex: 4
      m_TileSpriteIndex: 4
      m_TileMatrixIndex: 0
      m_TileColorIndex: 0
      m_TileObjectToInstantiateIndex: 65535
      m_AllTileFlags: 1073741825
  - first: {x: 3, y: 1, z: 0}
    second:
      serializedVersion: 2
      m_TileIndex: 5
      m_TileSpriteIndex: 5
      m_TileMatrixIndex: 0
      m_TileColorIndex: 0
      m_TileObjectToInstantiateIndex: 65535
      m_AllTileFlags: 1073741825
  - first: {x: 4, y: 1, z: 0}
    second:
      serializedVersion: 2
      m_TileIndex: 6
      m_TileSpriteIndex: 6
      m_TileMatrixIndex: 0
      m_TileColorIndex: 0
      m_TileObjectToInstantiateIndex: 65535
      m_AllTileFlags: 1073741825
  - first: {x: 5, y: 1, z: 0}
    second:
      serializedVersion: 2
      m_TileIndex: 7
      m_TileSpriteIndex: 7
      m_TileMatrixIndex: 0
      m_TileColorIndex: 0
      m_TileObjectToInstantiateIndex: 65535
      m_AllTileFlags: 1073741825
  - first: {x: 6, y: 1, z: 0}
    second:
      serializedVersion: 2
      m_TileIndex: 8
      m_TileSpriteIndex: 8
      m_TileMatrixIndex: 0
      m_TileColorIndex: 0
      m_TileObjectToInstantiateIndex: 65535
      m_AllTileFlags: 1073741825
  - first: {x: 7, y: 1, z: 0}
    second:
      serializedVersion: 2
      m_TileIndex: 9
      m_TileSpriteIndex: 9
      m_TileMatrixIndex: 0
      m_TileColorIndex: 0
      m_TileObjectToInstantiateIndex: 65535
      m_AllTileFlags: 1073741825
  - first: {x: 8, y: 1, z: 0}
    second:
      serializedVersion: 2
      m_TileIndex: 10
      m_TileSpriteIndex: 10
      m_TileMatrixIndex: 0
      m_TileColorIndex: 0
      m_TileObjectToInstantiateIndex: 65535
      m_AllTileFlags: 1073741825
  - first: {x: 9, y: 1, z: 0}
    second:
      serializedVersion: 2
      m_TileIndex: 11
      m_TileSpriteIndex: 11
      m_TileMatrixIndex: 0
      m_TileColorIndex: 0
      m_TileObjectToInstantiateIndex: 65535
      m_AllTileFlags: 1073741825
  - first: {x: 10, y: 1, z: 0}
    second:
      serializedVersion: 2
      m_TileIndex: 12
      m_TileSpriteIndex: 12
      m_TileMatrixIndex: 0
      m_TileColorIndex: 0
      m_TileObjectToInstantiateIndex: 65535
      m_AllTileFlags: 1073741825
  - first: {x: 11, y: 1, z: 0}
    second:
      serializedVersion: 2
      m_TileIndex: 13
      m_TileSpriteIndex: 13
      m_TileMatrixIndex: 0
      m_TileColorIndex: 0
      m_TileObjectToInstantiateIndex: 65535
      m_AllTileFlags: 1073741825
  - first: {x: 12, y: 1, z: 0}
    second:
      serializedVersion: 2
      m_TileIndex: 14
      m_TileSpriteIndex: 14
      m_TileMatrixIndex: 0
      m_TileColorIndex: 0
      m_TileObjectToInstantiateIndex: 65535
      m_AllTileFlags: 1073741825
  m_AnimatedTiles: {}
  m_TileAssetArray:
  - m_RefCount: 1
    m_Data: {fileID: 11400000, guid: e1ae4379fa658c44ca0b649d49e1f1a7, type: 2}
  - m_RefCount: 1
    m_Data: {fileID: 11400000, guid: 6025c1c3046d53346a2e864006a9f5fa, type: 2}
  - m_RefCount: 1
    m_Data: {fileID: 11400000, guid: 54ba3a91f7d5f0948b1f6a8b09738283, type: 2}
  - m_RefCount: 1
    m_Data: {fileID: 11400000, guid: e0afb88f281d035459f17e80acb9ba82, type: 2}
  - m_RefCount: 1
    m_Data: {fileID: 11400000, guid: 4b627ee293a62a843b9d2d9c1c40e2c6, type: 2}
  - m_RefCount: 1
    m_Data: {fileID: 11400000, guid: 4ef5937b283dd5747a6d5c5baf1ae241, type: 2}
  - m_RefCount: 1
    m_Data: {fileID: 11400000, guid: 4f4205e8ffddf6b46aef85738b13d051, type: 2}
  - m_RefCount: 1
    m_Data: {fileID: 11400000, guid: 23137de8146d689489345a8e31eea0cf, type: 2}
  - m_RefCount: 1
    m_Data: {fileID: 11400000, guid: 8a53be8e3e2f9a04c8c4a260e0c74957, type: 2}
  - m_RefCount: 1
    m_Data: {fileID: 11400000, guid: 7247b77645c722d44b1aa72970ee08f3, type: 2}
  - m_RefCount: 1
    m_Data: {fileID: 11400000, guid: f4745e73bd8bad943aeb72360d685c40, type: 2}
  - m_RefCount: 1
    m_Data: {fileID: 11400000, guid: 458e93bcfe1fc78458d571a6ec1ea0fb, type: 2}
  - m_RefCount: 1
    m_Data: {fileID: 11400000, guid: 29a26d683079c5146889cb6a0cd1440d, type: 2}
  - m_RefCount: 1
    m_Data: {fileID: 11400000, guid: 9cfdf1cac6c2bec45a657736750d2fee, type: 2}
  - m_RefCount: 1
    m_Data: {fileID: 11400000, guid: 1f7c2cd96eb3083459952342600f3ef2, type: 2}
  - m_RefCount: 1
    m_Data: {fileID: 11400000, guid: ce2f6dd280b79c64eb7933487c7371ae, type: 2}
  - m_RefCount: 1
    m_Data: {fileID: 11400000, guid: dd2280668760882498b599633fc63456, type: 2}
  - m_RefCount: 1
    m_Data: {fileID: 11400000, guid: 73136fa6b76f0ba43b1a1038461f739d, type: 2}
  - m_RefCount: 1
    m_Data: {fileID: 11400000, guid: 79ad17e37b87fdc439b2376f4657a66a, type: 2}
  - m_RefCount: 1
    m_Data: {fileID: 11400000, guid: 073d795bff492b6448dea32a211a6a18, type: 2}
  - m_RefCount: 1
    m_Data: {fileID: 11400000, guid: 89dca973501245d4fbac3d40154d6c36, type: 2}
  - m_RefCount: 1
    m_Data: {fileID: 11400000, guid: 98869e33621ada143855bd40dcf8dbd6, type: 2}
  - m_RefCount: 1
    m_Data: {fileID: 11400000, guid: c8bf267d54d1289489c1db8da73cee2d, type: 2}
  - m_RefCount: 1
    m_Data: {fileID: 11400000, guid: 5fe9d222c55891d43a2ba945f3425a3c, type: 2}
  - m_RefCount: 1
    m_Data: {fileID: 11400000, guid: 4c55a56dfcadb714087b37d53656ec84, type: 2}
  - m_RefCount: 1
    m_Data: {fileID: 11400000, guid: 6f697aeb13d7c2e41802bad325f16ea0, type: 2}
  - m_RefCount: 1
    m_Data: {fileID: 11400000, guid: f334339b556cd304babaeaec6530eeb1, type: 2}
  - m_RefCount: 1
    m_Data: {fileID: 11400000, guid: fb0e7a7380454fe4fa9bb604b7243b16, type: 2}
  - m_RefCount: 1
    m_Data: {fileID: 11400000, guid: 16fcdd90eb1327e47a35aefeee58a5de, type: 2}
  - m_RefCount: 1
    m_Data: {fileID: 11400000, guid: 01da70ec9c0e76d49ba2d89cf8fadbcc, type: 2}
  - m_RefCount: 1
    m_Data: {fileID: 11400000, guid: 8dbae52317b4a4c42a368baca8c7a6ea, type: 2}
  - m_RefCount: 1
    m_Data: {fileID: 11400000, guid: 2acf26085742997418ad10b31ea00f06, type: 2}
  - m_RefCount: 1
    m_Data: {fileID: 11400000, guid: b7322cfdaaa42e3428784f3c0b74fbb0, type: 2}
  - m_RefCount: 1
    m_Data: {fileID: 11400000, guid: 45f472a685b98674db148700e991891a, type: 2}
  - m_RefCount: 1
    m_Data: {fileID: 11400000, guid: 5a20592b3e2f43349a8ee9c454ebf649, type: 2}
  - m_RefCount: 1
    m_Data: {fileID: 11400000, guid: 5929de9fae78a304792488b4830f0c30, type: 2}
  - m_RefCount: 1
    m_Data: {fileID: 11400000, guid: a926c65a5778bf6408275c27a55b17f7, type: 2}
  - m_RefCount: 1
    m_Data: {fileID: 11400000, guid: b5e066dfba0a8a14887a5093edf574e2, type: 2}
  - m_RefCount: 1
    m_Data: {fileID: 11400000, guid: 406b93015301d954cb2b192b72e3fbd4, type: 2}
  - m_RefCount: 1
    m_Data: {fileID: 11400000, guid: 2ff7d446ea75ec9459fdecb6cf0d6a73, type: 2}
  - m_RefCount: 1
    m_Data: {fileID: 11400000, guid: 5ccfa5ac37daa52409910d7326d44bf3, type: 2}
  - m_RefCount: 1
    m_Data: {fileID: 11400000, guid: 52ef79bea0afd414a898897ec935eab7, type: 2}
  - m_RefCount: 1
    m_Data: {fileID: 11400000, guid: 746830072e44cd44295e1915e628c5c5, type: 2}
  - m_RefCount: 1
    m_Data: {fileID: 11400000, guid: 5bbcc699a08574948b80e9cbd74bfc08, type: 2}
  - m_RefCount: 1
    m_Data: {fileID: 11400000, guid: ecb39126862d8094389cf202156195b4, type: 2}
  - m_RefCount: 1
    m_Data: {fileID: 11400000, guid: 2a875f9540b56d843bc11653275331f4, type: 2}
  - m_RefCount: 1
    m_Data: {fileID: 11400000, guid: db626167da22b14499801bc07080594d, type: 2}
  - m_RefCount: 1
    m_Data: {fileID: 11400000, guid: 7734dd13b2919b64a9665d71105fa414, type: 2}
  - m_RefCount: 1
    m_Data: {fileID: 11400000, guid: f592feb940b7b2a44894cd7f68a5692f, type: 2}
  - m_RefCount: 1
    m_Data: {fileID: 11400000, guid: 43c02f4b533b1fa46b7f9271b0905441, type: 2}
  - m_RefCount: 1
    m_Data: {fileID: 11400000, guid: ef7f445cc0d28f84aad4d2022ce56ba2, type: 2}
  - m_RefCount: 1
    m_Data: {fileID: 11400000, guid: 68951ed6468fe5f40ba3e3b03b03c8a0, type: 2}
  - m_RefCount: 1
    m_Data: {fileID: 11400000, guid: 48dfbfa01a40cd84fb15db12593945db, type: 2}
  - m_RefCount: 1
    m_Data: {fileID: 11400000, guid: d3bb9b65b93e2734a8a58ad23e0406c6, type: 2}
  - m_RefCount: 1
    m_Data: {fileID: 11400000, guid: 8111e1ffd72b7cb4cb7e0995a83b4cce, type: 2}
  - m_RefCount: 1
    m_Data: {fileID: 11400000, guid: 75e7681f28929d64e926df36e9cd0e45, type: 2}
  - m_RefCount: 1
    m_Data: {fileID: 11400000, guid: 64273e260d1d6a54aafbe50022f70428, type: 2}
  - m_RefCount: 1
    m_Data: {fileID: 11400000, guid: 4b8c5e4c3f40b2c47a0ff714183bed46, type: 2}
  - m_RefCount: 1
    m_Data: {fileID: 11400000, guid: 21c999978070b534daaca53b02346f1d, type: 2}
  - m_RefCount: 1
    m_Data: {fileID: 11400000, guid: a72f12e203146634c9b0aec3baa96f9a, type: 2}
  - m_RefCount: 1
    m_Data: {fileID: 11400000, guid: b008d479de5270c4c92aa4d30ddb6adb, type: 2}
  - m_RefCount: 1
    m_Data: {fileID: 11400000, guid: fe1d9375c5961d04187e5f6401e96150, type: 2}
  - m_RefCount: 1
    m_Data: {fileID: 11400000, guid: 4bed9034ad2083241bc618819147f3f2, type: 2}
  - m_RefCount: 1
    m_Data: {fileID: 11400000, guid: 8c1ea7a72f7be9b43a1df32e8008f426, type: 2}
  - m_RefCount: 1
    m_Data: {fileID: 11400000, guid: 8a53fea32e224b741ab86c8bda4c8e9b, type: 2}
  - m_RefCount: 1
    m_Data: {fileID: 11400000, guid: 20223c3d5ddb90d4eaefb53ea081e0cb, type: 2}
  - m_RefCount: 1
    m_Data: {fileID: 11400000, guid: 6e242d3d8f182194fbef73fd1ed55593, type: 2}
  - m_RefCount: 1
    m_Data: {fileID: 11400000, guid: f8ad459277465c043b8057276d040028, type: 2}
  - m_RefCount: 1
    m_Data: {fileID: 11400000, guid: 4238c455331692b4cac53f25be828ce8, type: 2}
  - m_RefCount: 1
    m_Data: {fileID: 11400000, guid: e1c206c5acada7346887e13e01ad4c79, type: 2}
  - m_RefCount: 1
    m_Data: {fileID: 11400000, guid: f9252ba251e030349a6fb6cde269af0e, type: 2}
  - m_RefCount: 1
    m_Data: {fileID: 11400000, guid: 8ef53ad5dad9fa54eb750b39ea48f5a8, type: 2}
  - m_RefCount: 1
    m_Data: {fileID: 11400000, guid: 9d4fecdb651db24468dfb2f31cc9bb86, type: 2}
  - m_RefCount: 1
    m_Data: {fileID: 11400000, guid: 42e5431d66668f64e9cc313dd73ebb33, type: 2}
  - m_RefCount: 1
    m_Data: {fileID: 11400000, guid: 2809baf55f5cebc40bb441495cd5b61d, type: 2}
  - m_RefCount: 1
    m_Data: {fileID: 11400000, guid: 646978890183fc248b1800b372cc2c3e, type: 2}
  - m_RefCount: 1
    m_Data: {fileID: 11400000, guid: a337513c9c3a6d44c8a234e10243c332, type: 2}
  - m_RefCount: 1
    m_Data: {fileID: 11400000, guid: dc6d59d5f58b6214aadf5ee4c97f290e, type: 2}
  - m_RefCount: 1
    m_Data: {fileID: 11400000, guid: 2e1ae80d4648cad478ca2b38becf49af, type: 2}
  - m_RefCount: 1
    m_Data: {fileID: 11400000, guid: 790e3552be0364f4592e54a78695d40a, type: 2}
  - m_RefCount: 1
    m_Data: {fileID: 11400000, guid: 13bb1d6dda4f18042b51a04b22dae235, type: 2}
  - m_RefCount: 1
    m_Data: {fileID: 11400000, guid: a19bdd057f90f2643987296dadc2653b, type: 2}
  - m_RefCount: 1
    m_Data: {fileID: 11400000, guid: 05cf2ff0886869e4ea438961042a1b93, type: 2}
  - m_RefCount: 1
    m_Data: {fileID: 11400000, guid: ed18877820a7e0c4b908821cbc765d3b, type: 2}
  - m_RefCount: 1
    m_Data: {fileID: 11400000, guid: c83458eb02e6fba4ea7cfc50053ea943, type: 2}
  - m_RefCount: 1
    m_Data: {fileID: 11400000, guid: cf15ba363ff73214d85921e5be1e149b, type: 2}
  - m_RefCount: 1
    m_Data: {fileID: 11400000, guid: db1a2e886deb86d4398ca6564d795ae5, type: 2}
  - m_RefCount: 1
    m_Data: {fileID: 11400000, guid: 27870ee9a6d856e4bb901fb4a96b5b3b, type: 2}
  - m_RefCount: 1
    m_Data: {fileID: 11400000, guid: c79bc8ef94e196242bb4239114dd5fb6, type: 2}
  - m_RefCount: 1
    m_Data: {fileID: 11400000, guid: 12b28b5faa3d628459e2dbd6ae19ce16, type: 2}
  - m_RefCount: 1
    m_Data: {fileID: 11400000, guid: c1ff3814a76e2034b963e73b1437f843, type: 2}
  - m_RefCount: 1
    m_Data: {fileID: 11400000, guid: 754eaab3aca5d8347a7adcef70382abd, type: 2}
  - m_RefCount: 1
    m_Data: {fileID: 11400000, guid: 13a78e927c99a3142af157ef91bdcaa4, type: 2}
  - m_RefCount: 1
    m_Data: {fileID: 11400000, guid: b1db8e47ede927a4c98339a7e2333a02, type: 2}
  - m_RefCount: 1
    m_Data: {fileID: 11400000, guid: 690aefe413c69244ab9bddd0a99ad632, type: 2}
  - m_RefCount: 1
    m_Data: {fileID: 11400000, guid: e755056220ead7f46bb666b95078e6c5, type: 2}
  - m_RefCount: 1
    m_Data: {fileID: 11400000, guid: 5f3b2e5b0e09fe846a7e930412aba0cc, type: 2}
  - m_RefCount: 1
    m_Data: {fileID: 11400000, guid: 46177f00eaa532748b3e157b25755e20, type: 2}
  - m_RefCount: 1
    m_Data: {fileID: 11400000, guid: 8c63a937c2264684ea37928ce631dead, type: 2}
  - m_RefCount: 1
    m_Data: {fileID: 11400000, guid: e527d25187921f044ae0ee75a5b3c46a, type: 2}
  - m_RefCount: 1
    m_Data: {fileID: 11400000, guid: 323f6e7d3b8829d44870658b2b07f99b, type: 2}
  - m_RefCount: 1
    m_Data: {fileID: 11400000, guid: b3eb3c380d7b3e64bb321ba766b3af49, type: 2}
  - m_RefCount: 1
    m_Data: {fileID: 11400000, guid: a35015d01aa11dd468013297ddcffa38, type: 2}
  - m_RefCount: 1
    m_Data: {fileID: 11400000, guid: 36ce032c6c8675e488236d5395809400, type: 2}
  - m_RefCount: 1
    m_Data: {fileID: 11400000, guid: f05d91bc379b4a34dbf0254074a319b4, type: 2}
  - m_RefCount: 1
    m_Data: {fileID: 11400000, guid: 0021acdd103ef48418a876dffaaa2ba0, type: 2}
  - m_RefCount: 1
    m_Data: {fileID: 11400000, guid: f38ba493520d0c9418a85af48e53d2e1, type: 2}
  - m_RefCount: 1
    m_Data: {fileID: 11400000, guid: d4130feecdf02914c81a27618c8a576d, type: 2}
  - m_RefCount: 1
    m_Data: {fileID: 11400000, guid: 965d2d111a573a847bfaafcd2fc6d922, type: 2}
  - m_RefCount: 1
    m_Data: {fileID: 11400000, guid: b038e55faae3d81419b11f0c1a32a51d, type: 2}
  - m_RefCount: 1
    m_Data: {fileID: 11400000, guid: f7a8111eb04dc5f4e95b1cbe48b19d21, type: 2}
  - m_RefCount: 1
    m_Data: {fileID: 11400000, guid: 22556b040f43e574cb4d3b5837b26e80, type: 2}
  - m_RefCount: 1
    m_Data: {fileID: 11400000, guid: 9b8706e6a76e63048a76598f0537f3e8, type: 2}
  - m_RefCount: 1
    m_Data: {fileID: 11400000, guid: 20ceb3aed6fb39d419b31f3e354cf429, type: 2}
  - m_RefCount: 1
    m_Data: {fileID: 11400000, guid: 0d5042f7efd3fde46bb496e8e7c8de25, type: 2}
  - m_RefCount: 1
    m_Data: {fileID: 11400000, guid: e0a39f8b2c79edb40a059d9d74f163f4, type: 2}
  - m_RefCount: 1
    m_Data: {fileID: 11400000, guid: a8d00f648dd241045bcead8ea386faab, type: 2}
  - m_RefCount: 1
    m_Data: {fileID: 11400000, guid: 5e415f1c7d2971049ab50d811b3d5bd1, type: 2}
  - m_RefCount: 1
    m_Data: {fileID: 11400000, guid: 4fb5dc86a4e233c4bb3117467d735a63, type: 2}
  - m_RefCount: 1
    m_Data: {fileID: 11400000, guid: 7830e1629b243004980892d18eea4f0d, type: 2}
  - m_RefCount: 1
    m_Data: {fileID: 11400000, guid: bca4f86a1f2fa5f418fd33b764d1184e, type: 2}
  - m_RefCount: 1
    m_Data: {fileID: 11400000, guid: c88840667dba53145b7964f1f818be38, type: 2}
  - m_RefCount: 1
    m_Data: {fileID: 11400000, guid: 43427bd7e38c7f941a0292a98aace559, type: 2}
  - m_RefCount: 1
    m_Data: {fileID: 11400000, guid: 884e47b0cba319545814392909dd83af, type: 2}
  - m_RefCount: 1
    m_Data: {fileID: 11400000, guid: 75db152bc47bd194f88b987e0a17ef80, type: 2}
  - m_RefCount: 1
    m_Data: {fileID: 11400000, guid: 09ba84ad0554cf141acbfea274c908ef, type: 2}
  - m_RefCount: 1
    m_Data: {fileID: 11400000, guid: 1c99fa4960edaef4e8cd90fed2b4a421, type: 2}
  - m_RefCount: 1
    m_Data: {fileID: 11400000, guid: a0eb413e620d98f46bedcd3329ee7206, type: 2}
  - m_RefCount: 1
    m_Data: {fileID: 11400000, guid: d1b07f13594e76343b1c57ea16af5373, type: 2}
  - m_RefCount: 1
    m_Data: {fileID: 11400000, guid: 6f2748154ff55a546bcb9c867523fe75, type: 2}
  - m_RefCount: 1
    m_Data: {fileID: 11400000, guid: 460e4c783cc0d804abeec3e79d826980, type: 2}
  - m_RefCount: 1
    m_Data: {fileID: 11400000, guid: b693b463f4985f74694fb9125cc76363, type: 2}
  - m_RefCount: 1
    m_Data: {fileID: 11400000, guid: 11a096a8d9a933644916381522870b47, type: 2}
  - m_RefCount: 1
    m_Data: {fileID: 11400000, guid: f31fa6c1916b4d54c93bf90ee7d48968, type: 2}
  - m_RefCount: 1
    m_Data: {fileID: 11400000, guid: 628d7302a2c7ee44989c5822f1c1f0d1, type: 2}
  - m_RefCount: 1
    m_Data: {fileID: 11400000, guid: 9886325db6d21b64db25b05a27fe9698, type: 2}
  - m_RefCount: 1
    m_Data: {fileID: 11400000, guid: b80dfaf742d3f1d4f90eb045c1bdd501, type: 2}
  - m_RefCount: 1
    m_Data: {fileID: 11400000, guid: bd964778671319643b8e24e283611ad7, type: 2}
  - m_RefCount: 1
    m_Data: {fileID: 11400000, guid: f71faa61da8ba5c4787bd90ec26e2a6a, type: 2}
  - m_RefCount: 1
    m_Data: {fileID: 11400000, guid: 81b77fff917daeb4ba8009636b945b29, type: 2}
  - m_RefCount: 1
    m_Data: {fileID: 11400000, guid: e52bae0872e15cb40a9497c6646d2cba, type: 2}
  - m_RefCount: 1
    m_Data: {fileID: 11400000, guid: 7de65649ae0a2c0419b5873d724171e0, type: 2}
  - m_RefCount: 1
    m_Data: {fileID: 11400000, guid: ad311cd8229154b41a77b065351490e1, type: 2}
  - m_RefCount: 1
    m_Data: {fileID: 11400000, guid: 9f5dba042abbf324d89710e2e5ba7a2f, type: 2}
  - m_RefCount: 1
    m_Data: {fileID: 11400000, guid: 5e2af3a8ad1d3404d9dc04abaee0ee2b, type: 2}
  - m_RefCount: 1
    m_Data: {fileID: 11400000, guid: 4bf273c83cd04b64aaa8dcacc594acb8, type: 2}
  - m_RefCount: 1
    m_Data: {fileID: 11400000, guid: c59a29931e2696c478a58ed66547c1c7, type: 2}
  - m_RefCount: 1
    m_Data: {fileID: 11400000, guid: 2e5fe30f438d26443ac4dbdf9436d26d, type: 2}
  - m_RefCount: 1
    m_Data: {fileID: 11400000, guid: ede0f6cbd06da5d4b81369f6c00222e3, type: 2}
  - m_RefCount: 1
    m_Data: {fileID: 11400000, guid: 8865a06cbabe93448b74068d6a00c3ac, type: 2}
  - m_RefCount: 1
    m_Data: {fileID: 11400000, guid: ff118a97aa08e81429808fd49063d667, type: 2}
  - m_RefCount: 1
    m_Data: {fileID: 11400000, guid: 7a1fd428b6ff1b943bb61298d9f31c85, type: 2}
  - m_RefCount: 1
    m_Data: {fileID: 11400000, guid: 799d014723bb3224a9a42419060bba70, type: 2}
  - m_RefCount: 1
    m_Data: {fileID: 11400000, guid: b7542f3d7a0f90149a70c45629a150bd, type: 2}
  - m_RefCount: 1
    m_Data: {fileID: 11400000, guid: 31564de2223c84d4a8efd6a716b6ed1e, type: 2}
  - m_RefCount: 1
    m_Data: {fileID: 11400000, guid: 8a1135fb24fea074890f9687f6014fcd, type: 2}
  - m_RefCount: 1
    m_Data: {fileID: 11400000, guid: f359ab4f188127145aff7bcdee454b44, type: 2}
  - m_RefCount: 1
    m_Data: {fileID: 11400000, guid: 56b3126acaa57f243b2bd1ab01dbdda8, type: 2}
  - m_RefCount: 1
    m_Data: {fileID: 11400000, guid: 7432d5ba22ecc6c4f9fc168e9dc55055, type: 2}
  - m_RefCount: 1
    m_Data: {fileID: 11400000, guid: 280bf01dd5e9a1745b05a16b640a94ca, type: 2}
  - m_RefCount: 1
    m_Data: {fileID: 11400000, guid: 068e0ad23f0081547a56a35a4d63d90c, type: 2}
  - m_RefCount: 1
    m_Data: {fileID: 11400000, guid: 085b69540ef54b34383516787269e93e, type: 2}
  - m_RefCount: 1
    m_Data: {fileID: 11400000, guid: 7ae8eaccc40c5d74884f92b11f0a4ce8, type: 2}
  - m_RefCount: 1
    m_Data: {fileID: 11400000, guid: ae69648af9fd26945988fb6828cefa78, type: 2}
  - m_RefCount: 1
    m_Data: {fileID: 11400000, guid: d12c29afe75957948a7ba7809bd6c44f, type: 2}
  - m_RefCount: 1
    m_Data: {fileID: 11400000, guid: eb0eafdf667c5144bad4ce6f4cd65a72, type: 2}
  - m_RefCount: 1
    m_Data: {fileID: 11400000, guid: 4582ff3e38830e049b7c0d335c6b6237, type: 2}
  - m_RefCount: 1
    m_Data: {fileID: 11400000, guid: aef8d5dac4e51a34e897a175ff5d0507, type: 2}
  - m_RefCount: 1
    m_Data: {fileID: 11400000, guid: e2d1b601445611a4b901baa2b53cda4d, type: 2}
  - m_RefCount: 1
    m_Data: {fileID: 11400000, guid: 55b26e76a7ea7f4499ad814e64ed09b9, type: 2}
  - m_RefCount: 1
    m_Data: {fileID: 11400000, guid: 358b68832284ad149b3c26a8e370a52d, type: 2}
  - m_RefCount: 1
    m_Data: {fileID: 11400000, guid: 08c0779f0c5a8854bba9b65e9bb9b10a, type: 2}
  - m_RefCount: 1
    m_Data: {fileID: 11400000, guid: 65013101a85307848868fa47b1164a55, type: 2}
  - m_RefCount: 1
    m_Data: {fileID: 11400000, guid: 3584dc0d7225b6f4b83832193adffbd1, type: 2}
  - m_RefCount: 1
    m_Data: {fileID: 11400000, guid: 8335c4e16df435d4b8ca070ec5296390, type: 2}
  - m_RefCount: 1
    m_Data: {fileID: 11400000, guid: c3e3ce860a746cb4686381a7e75e5d0a, type: 2}
  - m_RefCount: 1
    m_Data: {fileID: 11400000, guid: 09ad450f888544e499bb9d2c1d493dd5, type: 2}
  - m_RefCount: 1
    m_Data: {fileID: 11400000, guid: f0f90ab30b1e3304cac5d2604a5b5b94, type: 2}
  - m_RefCount: 1
    m_Data: {fileID: 11400000, guid: a649138ed4801264ebed0035ee49b297, type: 2}
  - m_RefCount: 1
    m_Data: {fileID: 11400000, guid: 9cd21ae5e91aca64fbb3621f93ba088c, type: 2}
  - m_RefCount: 1
    m_Data: {fileID: 11400000, guid: 4867a9996643d1c4d98f19ce7008aa84, type: 2}
  - m_RefCount: 1
    m_Data: {fileID: 11400000, guid: e653805cdbf957e41ab90a48ec7b7816, type: 2}
  - m_RefCount: 1
    m_Data: {fileID: 11400000, guid: 53433fcdbfd7b6c4091a83a94db6f97e, type: 2}
  - m_RefCount: 1
    m_Data: {fileID: 11400000, guid: 9bf5c7d3f176177429e753a4eb5529e0, type: 2}
  - m_RefCount: 1
    m_Data: {fileID: 11400000, guid: c7d09d96f83480f4a92c9e1c351f65f0, type: 2}
  - m_RefCount: 1
    m_Data: {fileID: 11400000, guid: 35fa5f89e78d05c4d96e2b3a94c4c3e1, type: 2}
  - m_RefCount: 1
    m_Data: {fileID: 11400000, guid: d67adbcb6f812044da77151f7007e097, type: 2}
  - m_RefCount: 1
    m_Data: {fileID: 11400000, guid: 59c9a9cf607dba549a66658fcdb50bcc, type: 2}
  - m_RefCount: 1
    m_Data: {fileID: 11400000, guid: 2026ec0607449554db85955e819e141f, type: 2}
  - m_RefCount: 1
    m_Data: {fileID: 11400000, guid: 7753aa55633b66c46a57fade065cb721, type: 2}
  - m_RefCount: 1
    m_Data: {fileID: 11400000, guid: 8a77b2db3a4c0034ebed7583189ab7dd, type: 2}
  - m_RefCount: 1
    m_Data: {fileID: 11400000, guid: 3722cb2c6770d8444aa6079a090e417e, type: 2}
  - m_RefCount: 1
    m_Data: {fileID: 11400000, guid: 77b7b649a3b2a8f448fe6e7d06c0ccdf, type: 2}
  - m_RefCount: 1
    m_Data: {fileID: 11400000, guid: d9fababafcaec704d8571a0d6db989dc, type: 2}
  - m_RefCount: 1
    m_Data: {fileID: 11400000, guid: 00f34cd5dbed4ae4b809a87e078ef029, type: 2}
  - m_RefCount: 1
    m_Data: {fileID: 11400000, guid: 80d5b78a1c367fd4db7d796d69342d9c, type: 2}
  - m_RefCount: 1
    m_Data: {fileID: 11400000, guid: 067a986f41c00aa4ab005c586278fbd8, type: 2}
  - m_RefCount: 1
    m_Data: {fileID: 11400000, guid: 985c1fd424911ed44b79395018e2f723, type: 2}
  m_TileSpriteArray:
  - m_RefCount: 1
    m_Data: {fileID: -7724713790137263630, guid: a461d49af94597546b92b39c3afb230d, type: 3}
  - m_RefCount: 1
    m_Data: {fileID: -3990509379203920428, guid: a461d49af94597546b92b39c3afb230d, type: 3}
  - m_RefCount: 1
    m_Data: {fileID: 3214743780443492172, guid: a461d49af94597546b92b39c3afb230d, type: 3}
  - m_RefCount: 1
    m_Data: {fileID: -1945420250307759290, guid: a461d49af94597546b92b39c3afb230d, type: 3}
  - m_RefCount: 1
    m_Data: {fileID: -5021243829817320683, guid: a461d49af94597546b92b39c3afb230d, type: 3}
  - m_RefCount: 1
    m_Data: {fileID: 8593136869045228684, guid: a461d49af94597546b92b39c3afb230d, type: 3}
  - m_RefCount: 1
    m_Data: {fileID: -3438860709840623345, guid: a461d49af94597546b92b39c3afb230d, type: 3}
  - m_RefCount: 1
    m_Data: {fileID: -5735190089414419, guid: a461d49af94597546b92b39c3afb230d, type: 3}
  - m_RefCount: 1
    m_Data: {fileID: -2803607966643516189, guid: a461d49af94597546b92b39c3afb230d, type: 3}
  - m_RefCount: 1
    m_Data: {fileID: -2446725167694939777, guid: a461d49af94597546b92b39c3afb230d, type: 3}
  - m_RefCount: 1
    m_Data: {fileID: -2738471177257726252, guid: a461d49af94597546b92b39c3afb230d, type: 3}
  - m_RefCount: 1
    m_Data: {fileID: -907559267457081043, guid: a461d49af94597546b92b39c3afb230d, type: 3}
  - m_RefCount: 1
    m_Data: {fileID: 2406891879171989690, guid: a461d49af94597546b92b39c3afb230d, type: 3}
  - m_RefCount: 1
    m_Data: {fileID: -7534565216508645918, guid: a461d49af94597546b92b39c3afb230d, type: 3}
  - m_RefCount: 1
    m_Data: {fileID: 2767392066090172213, guid: a461d49af94597546b92b39c3afb230d, type: 3}
  - m_RefCount: 1
    m_Data: {fileID: 1829136918728881613, guid: a461d49af94597546b92b39c3afb230d, type: 3}
  - m_RefCount: 1
    m_Data: {fileID: -6963633522421056648, guid: a461d49af94597546b92b39c3afb230d, type: 3}
  - m_RefCount: 1
    m_Data: {fileID: 3941805119972341066, guid: a461d49af94597546b92b39c3afb230d, type: 3}
  - m_RefCount: 1
    m_Data: {fileID: -4322337334029775330, guid: a461d49af94597546b92b39c3afb230d, type: 3}
  - m_RefCount: 1
    m_Data: {fileID: 7837675407075786475, guid: a461d49af94597546b92b39c3afb230d, type: 3}
  - m_RefCount: 1
    m_Data: {fileID: 7272043450528927126, guid: a461d49af94597546b92b39c3afb230d, type: 3}
  - m_RefCount: 1
    m_Data: {fileID: -3657686042398432501, guid: a461d49af94597546b92b39c3afb230d, type: 3}
  - m_RefCount: 1
    m_Data: {fileID: -2835515862821549870, guid: a461d49af94597546b92b39c3afb230d, type: 3}
  - m_RefCount: 1
    m_Data: {fileID: -7404714969637834442, guid: a461d49af94597546b92b39c3afb230d, type: 3}
  - m_RefCount: 1
    m_Data: {fileID: 8347166933768884093, guid: a461d49af94597546b92b39c3afb230d, type: 3}
  - m_RefCount: 1
    m_Data: {fileID: 3477957228916316079, guid: a461d49af94597546b92b39c3afb230d, type: 3}
  - m_RefCount: 1
    m_Data: {fileID: -7170194664800068603, guid: a461d49af94597546b92b39c3afb230d, type: 3}
  - m_RefCount: 1
    m_Data: {fileID: 1496437556229347990, guid: a461d49af94597546b92b39c3afb230d, type: 3}
  - m_RefCount: 1
    m_Data: {fileID: 1016027363357439746, guid: a461d49af94597546b92b39c3afb230d, type: 3}
  - m_RefCount: 1
    m_Data: {fileID: -4896232652647761299, guid: a461d49af94597546b92b39c3afb230d, type: 3}
  - m_RefCount: 1
    m_Data: {fileID: 9077407498547416941, guid: a461d49af94597546b92b39c3afb230d, type: 3}
  - m_RefCount: 1
    m_Data: {fileID: -7576939277486865457, guid: a461d49af94597546b92b39c3afb230d, type: 3}
  - m_RefCount: 1
    m_Data: {fileID: -9148423675568201669, guid: a461d49af94597546b92b39c3afb230d, type: 3}
  - m_RefCount: 1
    m_Data: {fileID: 3910325095771317891, guid: a461d49af94597546b92b39c3afb230d, type: 3}
  - m_RefCount: 1
    m_Data: {fileID: 5012523355376328457, guid: a461d49af94597546b92b39c3afb230d, type: 3}
  - m_RefCount: 1
    m_Data: {fileID: -4657560473060133761, guid: a461d49af94597546b92b39c3afb230d, type: 3}
  - m_RefCount: 1
    m_Data: {fileID: 3826391893292222219, guid: a461d49af94597546b92b39c3afb230d, type: 3}
  - m_RefCount: 1
    m_Data: {fileID: -4511913742729781843, guid: a461d49af94597546b92b39c3afb230d, type: 3}
  - m_RefCount: 1
    m_Data: {fileID: -7772188984084114990, guid: a461d49af94597546b92b39c3afb230d, type: 3}
  - m_RefCount: 1
    m_Data: {fileID: -2230425952634725813, guid: a461d49af94597546b92b39c3afb230d, type: 3}
  - m_RefCount: 1
    m_Data: {fileID: 2777194625643851840, guid: a461d49af94597546b92b39c3afb230d, type: 3}
  - m_RefCount: 1
    m_Data: {fileID: -1978644099864473200, guid: a461d49af94597546b92b39c3afb230d, type: 3}
  - m_RefCount: 1
    m_Data: {fileID: -3715866718404266757, guid: a461d49af94597546b92b39c3afb230d, type: 3}
  - m_RefCount: 1
    m_Data: {fileID: -6812246845391552386, guid: a461d49af94597546b92b39c3afb230d, type: 3}
  - m_RefCount: 1
    m_Data: {fileID: -575420274827942069, guid: a461d49af94597546b92b39c3afb230d, type: 3}
  - m_RefCount: 1
    m_Data: {fileID: 7503453479346186252, guid: a461d49af94597546b92b39c3afb230d, type: 3}
  - m_RefCount: 1
    m_Data: {fileID: 6936341033736572426, guid: a461d49af94597546b92b39c3afb230d, type: 3}
  - m_RefCount: 1
    m_Data: {fileID: 8106134044373494497, guid: a461d49af94597546b92b39c3afb230d, type: 3}
  - m_RefCount: 1
    m_Data: {fileID: 1088090882870366332, guid: a461d49af94597546b92b39c3afb230d, type: 3}
  - m_RefCount: 1
    m_Data: {fileID: -2905586413272357707, guid: a461d49af94597546b92b39c3afb230d, type: 3}
  - m_RefCount: 1
    m_Data: {fileID: -4561720234808775531, guid: a461d49af94597546b92b39c3afb230d, type: 3}
  - m_RefCount: 1
    m_Data: {fileID: -6825875698922067668, guid: a461d49af94597546b92b39c3afb230d, type: 3}
  - m_RefCount: 1
    m_Data: {fileID: 5927562789010648659, guid: a461d49af94597546b92b39c3afb230d, type: 3}
  - m_RefCount: 1
    m_Data: {fileID: -5198598842642948660, guid: a461d49af94597546b92b39c3afb230d, type: 3}
  - m_RefCount: 1
    m_Data: {fileID: -5083485779980541673, guid: a461d49af94597546b92b39c3afb230d, type: 3}
  - m_RefCount: 1
    m_Data: {fileID: 2855702207117679556, guid: a461d49af94597546b92b39c3afb230d, type: 3}
  - m_RefCount: 1
    m_Data: {fileID: -6027324668007485766, guid: a461d49af94597546b92b39c3afb230d, type: 3}
  - m_RefCount: 1
    m_Data: {fileID: -4283046656288404610, guid: a461d49af94597546b92b39c3afb230d, type: 3}
  - m_RefCount: 1
    m_Data: {fileID: 2058879232378944791, guid: a461d49af94597546b92b39c3afb230d, type: 3}
  - m_RefCount: 1
    m_Data: {fileID: 3856148304754805834, guid: a461d49af94597546b92b39c3afb230d, type: 3}
  - m_RefCount: 1
    m_Data: {fileID: -2743261229908328469, guid: a461d49af94597546b92b39c3afb230d, type: 3}
  - m_RefCount: 1
    m_Data: {fileID: 557594318401148457, guid: a461d49af94597546b92b39c3afb230d, type: 3}
  - m_RefCount: 1
    m_Data: {fileID: 4012348660649995447, guid: a461d49af94597546b92b39c3afb230d, type: 3}
  - m_RefCount: 1
    m_Data: {fileID: 398040724129893941, guid: a461d49af94597546b92b39c3afb230d, type: 3}
  - m_RefCount: 1
    m_Data: {fileID: -2947998208356773759, guid: a461d49af94597546b92b39c3afb230d, type: 3}
  - m_RefCount: 1
    m_Data: {fileID: -3295735992121065928, guid: a461d49af94597546b92b39c3afb230d, type: 3}
  - m_RefCount: 1
    m_Data: {fileID: -2180236487786517786, guid: a461d49af94597546b92b39c3afb230d, type: 3}
  - m_RefCount: 1
    m_Data: {fileID: -443782965603677044, guid: a461d49af94597546b92b39c3afb230d, type: 3}
  - m_RefCount: 1
    m_Data: {fileID: 2305143617814582941, guid: a461d49af94597546b92b39c3afb230d, type: 3}
  - m_RefCount: 1
    m_Data: {fileID: -6884727518577127428, guid: a461d49af94597546b92b39c3afb230d, type: 3}
  - m_RefCount: 1
    m_Data: {fileID: 8275503202727964214, guid: a461d49af94597546b92b39c3afb230d, type: 3}
  - m_RefCount: 1
    m_Data: {fileID: -7108555525351328981, guid: a461d49af94597546b92b39c3afb230d, type: 3}
  - m_RefCount: 1
    m_Data: {fileID: 6858051032892705465, guid: a461d49af94597546b92b39c3afb230d, type: 3}
  - m_RefCount: 1
    m_Data: {fileID: 3175564659525396591, guid: a461d49af94597546b92b39c3afb230d, type: 3}
  - m_RefCount: 1
    m_Data: {fileID: 5937294923765776826, guid: a461d49af94597546b92b39c3afb230d, type: 3}
  - m_RefCount: 1
    m_Data: {fileID: -1166491750731866992, guid: a461d49af94597546b92b39c3afb230d, type: 3}
  - m_RefCount: 1
    m_Data: {fileID: 6070841213047635556, guid: a461d49af94597546b92b39c3afb230d, type: 3}
  - m_RefCount: 1
    m_Data: {fileID: -7149765656641542798, guid: a461d49af94597546b92b39c3afb230d, type: 3}
  - m_RefCount: 1
    m_Data: {fileID: 6330968242808390200, guid: a461d49af94597546b92b39c3afb230d, type: 3}
  - m_RefCount: 1
    m_Data: {fileID: 1842607852933721481, guid: a461d49af94597546b92b39c3afb230d, type: 3}
  - m_RefCount: 1
    m_Data: {fileID: -7087546798778145435, guid: a461d49af94597546b92b39c3afb230d, type: 3}
  - m_RefCount: 1
    m_Data: {fileID: -9002873340264359230, guid: a461d49af94597546b92b39c3afb230d, type: 3}
  - m_RefCount: 1
    m_Data: {fileID: 6324026549204805784, guid: a461d49af94597546b92b39c3afb230d, type: 3}
  - m_RefCount: 1
    m_Data: {fileID: -4412923684814772017, guid: a461d49af94597546b92b39c3afb230d, type: 3}
  - m_RefCount: 1
    m_Data: {fileID: 2152609763834234803, guid: a461d49af94597546b92b39c3afb230d, type: 3}
  - m_RefCount: 1
    m_Data: {fileID: -6766785259034475036, guid: a461d49af94597546b92b39c3afb230d, type: 3}
  - m_RefCount: 1
    m_Data: {fileID: 4558776555585247246, guid: a461d49af94597546b92b39c3afb230d, type: 3}
  - m_RefCount: 1
    m_Data: {fileID: 1383803437261215073, guid: a461d49af94597546b92b39c3afb230d, type: 3}
  - m_RefCount: 1
    m_Data: {fileID: -3907239118300094688, guid: a461d49af94597546b92b39c3afb230d, type: 3}
  - m_RefCount: 1
    m_Data: {fileID: 3049922153870608800, guid: a461d49af94597546b92b39c3afb230d, type: 3}
  - m_RefCount: 1
    m_Data: {fileID: -7065375736639674872, guid: a461d49af94597546b92b39c3afb230d, type: 3}
  - m_RefCount: 1
    m_Data: {fileID: -9071924556937728473, guid: a461d49af94597546b92b39c3afb230d, type: 3}
  - m_RefCount: 1
    m_Data: {fileID: -2306468618037655611, guid: a461d49af94597546b92b39c3afb230d, type: 3}
  - m_RefCount: 1
    m_Data: {fileID: 5909709331392557691, guid: a461d49af94597546b92b39c3afb230d, type: 3}
  - m_RefCount: 1
    m_Data: {fileID: 4153212705547874467, guid: a461d49af94597546b92b39c3afb230d, type: 3}
  - m_RefCount: 1
    m_Data: {fileID: 5884846763523062166, guid: a461d49af94597546b92b39c3afb230d, type: 3}
  - m_RefCount: 1
    m_Data: {fileID: 9035853425112894227, guid: a461d49af94597546b92b39c3afb230d, type: 3}
  - m_RefCount: 1
    m_Data: {fileID: -679246008454907889, guid: a461d49af94597546b92b39c3afb230d, type: 3}
  - m_RefCount: 1
    m_Data: {fileID: 2109834933712157987, guid: a461d49af94597546b92b39c3afb230d, type: 3}
  - m_RefCount: 1
    m_Data: {fileID: -4341693429302407034, guid: a461d49af94597546b92b39c3afb230d, type: 3}
  - m_RefCount: 1
    m_Data: {fileID: 3079368870777813246, guid: a461d49af94597546b92b39c3afb230d, type: 3}
  - m_RefCount: 1
    m_Data: {fileID: -3853352564985148678, guid: a461d49af94597546b92b39c3afb230d, type: 3}
  - m_RefCount: 1
    m_Data: {fileID: -7767860433515643062, guid: a461d49af94597546b92b39c3afb230d, type: 3}
  - m_RefCount: 1
    m_Data: {fileID: -3195008476270375236, guid: a461d49af94597546b92b39c3afb230d, type: 3}
  - m_RefCount: 1
    m_Data: {fileID: 3358294527033063803, guid: a461d49af94597546b92b39c3afb230d, type: 3}
  - m_RefCount: 1
    m_Data: {fileID: 7336777927007421187, guid: a461d49af94597546b92b39c3afb230d, type: 3}
  - m_RefCount: 1
    m_Data: {fileID: 7740901956787538385, guid: a461d49af94597546b92b39c3afb230d, type: 3}
  - m_RefCount: 1
    m_Data: {fileID: 1402264956886417144, guid: a461d49af94597546b92b39c3afb230d, type: 3}
  - m_RefCount: 1
    m_Data: {fileID: 6951524370939673730, guid: a461d49af94597546b92b39c3afb230d, type: 3}
  - m_RefCount: 1
    m_Data: {fileID: 1285989843609773314, guid: a461d49af94597546b92b39c3afb230d, type: 3}
  - m_RefCount: 1
    m_Data: {fileID: 2384904420004461520, guid: a461d49af94597546b92b39c3afb230d, type: 3}
  - m_RefCount: 1
    m_Data: {fileID: -2132277494727643102, guid: a461d49af94597546b92b39c3afb230d, type: 3}
  - m_RefCount: 1
    m_Data: {fileID: -3833233575597374837, guid: a461d49af94597546b92b39c3afb230d, type: 3}
  - m_RefCount: 1
    m_Data: {fileID: 1699811794235651090, guid: a461d49af94597546b92b39c3afb230d, type: 3}
  - m_RefCount: 1
    m_Data: {fileID: 3560962831340456940, guid: a461d49af94597546b92b39c3afb230d, type: 3}
  - m_RefCount: 1
    m_Data: {fileID: 1427435130182277337, guid: a461d49af94597546b92b39c3afb230d, type: 3}
  - m_RefCount: 1
    m_Data: {fileID: 8864245682388374281, guid: a461d49af94597546b92b39c3afb230d, type: 3}
  - m_RefCount: 1
    m_Data: {fileID: -3859233300270568342, guid: a461d49af94597546b92b39c3afb230d, type: 3}
  - m_RefCount: 1
    m_Data: {fileID: 5387618636544692631, guid: a461d49af94597546b92b39c3afb230d, type: 3}
  - m_RefCount: 1
    m_Data: {fileID: -7177522930696457499, guid: a461d49af94597546b92b39c3afb230d, type: 3}
  - m_RefCount: 1
    m_Data: {fileID: 1238996893288088360, guid: a461d49af94597546b92b39c3afb230d, type: 3}
  - m_RefCount: 1
    m_Data: {fileID: 4822715308862463173, guid: a461d49af94597546b92b39c3afb230d, type: 3}
  - m_RefCount: 1
    m_Data: {fileID: 2860745462644904784, guid: a461d49af94597546b92b39c3afb230d, type: 3}
  - m_RefCount: 1
    m_Data: {fileID: -7967284333556098161, guid: a461d49af94597546b92b39c3afb230d, type: 3}
  - m_RefCount: 1
    m_Data: {fileID: 7866763015532486679, guid: a461d49af94597546b92b39c3afb230d, type: 3}
  - m_RefCount: 1
    m_Data: {fileID: 2886177447351577194, guid: a461d49af94597546b92b39c3afb230d, type: 3}
  - m_RefCount: 1
    m_Data: {fileID: -4736081994588826069, guid: a461d49af94597546b92b39c3afb230d, type: 3}
  - m_RefCount: 1
    m_Data: {fileID: -1365339443329387554, guid: a461d49af94597546b92b39c3afb230d, type: 3}
  - m_RefCount: 1
    m_Data: {fileID: 2289773013296854654, guid: a461d49af94597546b92b39c3afb230d, type: 3}
  - m_RefCount: 1
    m_Data: {fileID: -2038256957873321600, guid: a461d49af94597546b92b39c3afb230d, type: 3}
  - m_RefCount: 1
    m_Data: {fileID: 5564530918190342629, guid: a461d49af94597546b92b39c3afb230d, type: 3}
  - m_RefCount: 1
    m_Data: {fileID: 6379423475103899506, guid: a461d49af94597546b92b39c3afb230d, type: 3}
  - m_RefCount: 1
    m_Data: {fileID: -2214566275732185527, guid: a461d49af94597546b92b39c3afb230d, type: 3}
  - m_RefCount: 1
    m_Data: {fileID: -2915722375827077967, guid: a461d49af94597546b92b39c3afb230d, type: 3}
  - m_RefCount: 1
    m_Data: {fileID: -1779343175846490332, guid: a461d49af94597546b92b39c3afb230d, type: 3}
  - m_RefCount: 1
    m_Data: {fileID: -6738334221369431422, guid: a461d49af94597546b92b39c3afb230d, type: 3}
  - m_RefCount: 1
    m_Data: {fileID: 8486059575152739185, guid: a461d49af94597546b92b39c3afb230d, type: 3}
  - m_RefCount: 1
    m_Data: {fileID: -6375454102567151714, guid: a461d49af94597546b92b39c3afb230d, type: 3}
  - m_RefCount: 1
    m_Data: {fileID: -8380170965180185873, guid: a461d49af94597546b92b39c3afb230d, type: 3}
  - m_RefCount: 1
    m_Data: {fileID: -7536188822644127021, guid: a461d49af94597546b92b39c3afb230d, type: 3}
  - m_RefCount: 1
    m_Data: {fileID: 4709842741085254989, guid: a461d49af94597546b92b39c3afb230d, type: 3}
  - m_RefCount: 1
    m_Data: {fileID: 1339894603370366910, guid: a461d49af94597546b92b39c3afb230d, type: 3}
  - m_RefCount: 1
    m_Data: {fileID: -8085117759894685745, guid: a461d49af94597546b92b39c3afb230d, type: 3}
  - m_RefCount: 1
    m_Data: {fileID: 5003322925351340317, guid: a461d49af94597546b92b39c3afb230d, type: 3}
  - m_RefCount: 1
    m_Data: {fileID: 3046966310718317585, guid: a461d49af94597546b92b39c3afb230d, type: 3}
  - m_RefCount: 1
    m_Data: {fileID: 2633558140701125291, guid: a461d49af94597546b92b39c3afb230d, type: 3}
  - m_RefCount: 1
    m_Data: {fileID: 4093536667546911728, guid: a461d49af94597546b92b39c3afb230d, type: 3}
  - m_RefCount: 1
    m_Data: {fileID: -3924339193615829901, guid: a461d49af94597546b92b39c3afb230d, type: 3}
  - m_RefCount: 1
    m_Data: {fileID: -2999196915368262735, guid: a461d49af94597546b92b39c3afb230d, type: 3}
  - m_RefCount: 1
    m_Data: {fileID: -3709007594427315329, guid: a461d49af94597546b92b39c3afb230d, type: 3}
  - m_RefCount: 1
    m_Data: {fileID: -6617018990933998394, guid: a461d49af94597546b92b39c3afb230d, type: 3}
  - m_RefCount: 1
    m_Data: {fileID: -1973207787807643067, guid: a461d49af94597546b92b39c3afb230d, type: 3}
  - m_RefCount: 1
    m_Data: {fileID: -443757759119905588, guid: a461d49af94597546b92b39c3afb230d, type: 3}
  - m_RefCount: 1
    m_Data: {fileID: 3434655877882567752, guid: a461d49af94597546b92b39c3afb230d, type: 3}
  - m_RefCount: 1
    m_Data: {fileID: -2113876696273562854, guid: a461d49af94597546b92b39c3afb230d, type: 3}
  - m_RefCount: 1
    m_Data: {fileID: 3426089185976541054, guid: a461d49af94597546b92b39c3afb230d, type: 3}
  - m_RefCount: 1
    m_Data: {fileID: 7125410866705731797, guid: a461d49af94597546b92b39c3afb230d, type: 3}
  - m_RefCount: 1
    m_Data: {fileID: 2701233318057516545, guid: a461d49af94597546b92b39c3afb230d, type: 3}
  - m_RefCount: 1
    m_Data: {fileID: 4572923704354847237, guid: a461d49af94597546b92b39c3afb230d, type: 3}
  - m_RefCount: 1
    m_Data: {fileID: 7597634669278373931, guid: a461d49af94597546b92b39c3afb230d, type: 3}
  - m_RefCount: 1
    m_Data: {fileID: -5511480773541955663, guid: a461d49af94597546b92b39c3afb230d, type: 3}
  - m_RefCount: 1
    m_Data: {fileID: 7249915255283495194, guid: a461d49af94597546b92b39c3afb230d, type: 3}
  - m_RefCount: 1
    m_Data: {fileID: -1188415926956105009, guid: a461d49af94597546b92b39c3afb230d, type: 3}
  - m_RefCount: 1
    m_Data: {fileID: 547807535643867151, guid: a461d49af94597546b92b39c3afb230d, type: 3}
  - m_RefCount: 1
    m_Data: {fileID: -5016711946202841345, guid: a461d49af94597546b92b39c3afb230d, type: 3}
  - m_RefCount: 1
    m_Data: {fileID: 4679959080664645126, guid: a461d49af94597546b92b39c3afb230d, type: 3}
  - m_RefCount: 1
    m_Data: {fileID: -5172159154524420834, guid: a461d49af94597546b92b39c3afb230d, type: 3}
  - m_RefCount: 1
    m_Data: {fileID: -4434872740212176955, guid: a461d49af94597546b92b39c3afb230d, type: 3}
  - m_RefCount: 1
    m_Data: {fileID: -7137908955052607850, guid: a461d49af94597546b92b39c3afb230d, type: 3}
  - m_RefCount: 1
    m_Data: {fileID: -6953641344319436960, guid: a461d49af94597546b92b39c3afb230d, type: 3}
  - m_RefCount: 1
    m_Data: {fileID: -6986988853067379615, guid: a461d49af94597546b92b39c3afb230d, type: 3}
  - m_RefCount: 1
    m_Data: {fileID: 3098391773594750218, guid: a461d49af94597546b92b39c3afb230d, type: 3}
  - m_RefCount: 1
    m_Data: {fileID: 5969820444238035553, guid: a461d49af94597546b92b39c3afb230d, type: 3}
  - m_RefCount: 1
    m_Data: {fileID: 2855093410707626458, guid: a461d49af94597546b92b39c3afb230d, type: 3}
  - m_RefCount: 1
    m_Data: {fileID: -366730490246988697, guid: a461d49af94597546b92b39c3afb230d, type: 3}
  - m_RefCount: 1
    m_Data: {fileID: -5753314346788877759, guid: a461d49af94597546b92b39c3afb230d, type: 3}
  - m_RefCount: 1
    m_Data: {fileID: 1936583160254675877, guid: a461d49af94597546b92b39c3afb230d, type: 3}
  - m_RefCount: 1
    m_Data: {fileID: 213550721261820039, guid: a461d49af94597546b92b39c3afb230d, type: 3}
  - m_RefCount: 1
    m_Data: {fileID: 6116573905401352516, guid: a461d49af94597546b92b39c3afb230d, type: 3}
  - m_RefCount: 1
    m_Data: {fileID: 8138537626768473949, guid: a461d49af94597546b92b39c3afb230d, type: 3}
  - m_RefCount: 1
    m_Data: {fileID: -2859383292241702044, guid: a461d49af94597546b92b39c3afb230d, type: 3}
  - m_RefCount: 1
    m_Data: {fileID: 5541582815083734889, guid: a461d49af94597546b92b39c3afb230d, type: 3}
  - m_RefCount: 1
    m_Data: {fileID: -1647984138525647355, guid: a461d49af94597546b92b39c3afb230d, type: 3}
  - m_RefCount: 1
    m_Data: {fileID: 1883688809614598488, guid: a461d49af94597546b92b39c3afb230d, type: 3}
  - m_RefCount: 1
    m_Data: {fileID: 5843815006114292820, guid: a461d49af94597546b92b39c3afb230d, type: 3}
  - m_RefCount: 1
    m_Data: {fileID: -3534068168846280168, guid: a461d49af94597546b92b39c3afb230d, type: 3}
  - m_RefCount: 1
    m_Data: {fileID: -643243277860158404, guid: a461d49af94597546b92b39c3afb230d, type: 3}
  - m_RefCount: 1
    m_Data: {fileID: 1887370160122997025, guid: a461d49af94597546b92b39c3afb230d, type: 3}
  - m_RefCount: 1
    m_Data: {fileID: 1876257293717925675, guid: a461d49af94597546b92b39c3afb230d, type: 3}
  - m_RefCount: 1
    m_Data: {fileID: 1348847112888978378, guid: a461d49af94597546b92b39c3afb230d, type: 3}
  - m_RefCount: 1
    m_Data: {fileID: -5633808918285951314, guid: a461d49af94597546b92b39c3afb230d, type: 3}
  - m_RefCount: 1
    m_Data: {fileID: -4739284121717404719, guid: a461d49af94597546b92b39c3afb230d, type: 3}
  - m_RefCount: 1
    m_Data: {fileID: 3245540216522283088, guid: a461d49af94597546b92b39c3afb230d, type: 3}
  - m_RefCount: 1
    m_Data: {fileID: 2722131434639400318, guid: a461d49af94597546b92b39c3afb230d, type: 3}
  - m_RefCount: 1
    m_Data: {fileID: -6863689537366671300, guid: a461d49af94597546b92b39c3afb230d, type: 3}
  - m_RefCount: 1
    m_Data: {fileID: 3819976832533034578, guid: a461d49af94597546b92b39c3afb230d, type: 3}
  - m_RefCount: 1
    m_Data: {fileID: -1736721297704704416, guid: a461d49af94597546b92b39c3afb230d, type: 3}
  - m_RefCount: 1
    m_Data: {fileID: -1163042826645091410, guid: a461d49af94597546b92b39c3afb230d, type: 3}
  m_TileMatrixArray:
  - m_RefCount: 198
    m_Data:
      e00: 1
      e01: 0
      e02: 0
      e03: 0
      e10: 0
      e11: 1
      e12: 0
      e13: 0
      e20: 0
      e21: 0
      e22: 1
      e23: 0
      e30: 0
      e31: 0
      e32: 0
      e33: 1
  m_TileColorArray:
  - m_RefCount: 198
    m_Data: {r: 1, g: 1, b: 1, a: 1}
  m_TileObjectToInstantiateArray: []
  m_AnimationFrameRate: 1
  m_Color: {r: 1, g: 1, b: 1, a: 1}
  m_Origin: {x: -2, y: -14, z: 0}
  m_Size: {x: 16, y: 16, z: 1}
  m_TileAnchor: {x: 0.5, y: 0.5, z: 0}
  m_TileOrientation: 0
  m_TileOrientationMatrix:
    e00: 1
    e01: 0
    e02: 0
    e03: 0
    e10: 0
    e11: 1
    e12: 0
    e13: 0
    e20: 0
    e21: 0
    e22: 1
    e23: 0
    e30: 0
    e31: 0
    e32: 0
    e33: 1
--- !u!483693784 &390916411809475184
TilemapRenderer:
  m_ObjectHideFlags: 0
  m_CorrespondingSourceObject: {fileID: 0}
  m_PrefabInstance: {fileID: 0}
  m_PrefabAsset: {fileID: 0}
  m_GameObject: {fileID: 5001834111165059343}
  m_Enabled: 1
  m_CastShadows: 0
  m_ReceiveShadows: 0
  m_DynamicOccludee: 1
  m_MotionVectors: 1
  m_LightProbeUsage: 0
  m_ReflectionProbeUsage: 0
  m_RayTracingMode: 0
  m_RayTraceProcedural: 0
  m_RenderingLayerMask: 1
  m_RendererPriority: 0
  m_Materials:
  - {fileID: 10754, guid: 0000000000000000f000000000000000, type: 0}
  m_StaticBatchInfo:
    firstSubMesh: 0
    subMeshCount: 0
  m_StaticBatchRoot: {fileID: 0}
  m_ProbeAnchor: {fileID: 0}
  m_LightProbeVolumeOverride: {fileID: 0}
  m_ScaleInLightmap: 1
  m_ReceiveGI: 1
  m_PreserveUVs: 0
  m_IgnoreNormalsForChartDetection: 0
  m_ImportantGI: 0
  m_StitchLightmapSeams: 1
  m_SelectedEditorRenderState: 0
  m_MinimumChartSize: 4
  m_AutoUVMaxDistance: 0.5
  m_AutoUVMaxAngle: 89
  m_LightmapParameters: {fileID: 0}
  m_SortingLayerID: 0
  m_SortingLayer: 0
  m_SortingOrder: 0
  m_ChunkSize: {x: 32, y: 32, z: 32}
  m_ChunkCullingBounds: {x: 0, y: 0, z: 0}
  m_MaxChunkCount: 16
  m_MaxFrameAge: 16
  m_SortOrder: 0
  m_Mode: 0
  m_DetectChunkCullingBounds: 0
  m_MaskInteraction: 0
--- !u!1 &5251846395458165819
GameObject:
  m_ObjectHideFlags: 0
  m_CorrespondingSourceObject: {fileID: 0}
  m_PrefabInstance: {fileID: 0}
  m_PrefabAsset: {fileID: 0}
  serializedVersion: 6
  m_Component:
  - component: {fileID: 5213765341043227199}
  - component: {fileID: 7878171421292030079}
  m_Layer: 31
  m_Name: Ground Palette
  m_TagString: Untagged
  m_Icon: {fileID: 0}
  m_NavMeshLayer: 0
  m_StaticEditorFlags: 0
  m_IsActive: 1
--- !u!4 &5213765341043227199
Transform:
  m_ObjectHideFlags: 0
  m_CorrespondingSourceObject: {fileID: 0}
  m_PrefabInstance: {fileID: 0}
  m_PrefabAsset: {fileID: 0}
  m_GameObject: {fileID: 5251846395458165819}
  m_LocalRotation: {x: 0, y: 0, z: 0, w: 1}
  m_LocalPosition: {x: 0, y: 0, z: 0}
  m_LocalScale: {x: 1, y: 1, z: 1}
  m_Children:
  - {fileID: 5146275426178747321}
  m_Father: {fileID: 0}
  m_RootOrder: 0
  m_LocalEulerAnglesHint: {x: 0, y: 0, z: 0}
--- !u!156049354 &7878171421292030079
Grid:
  m_ObjectHideFlags: 0
  m_CorrespondingSourceObject: {fileID: 0}
  m_PrefabInstance: {fileID: 0}
  m_PrefabAsset: {fileID: 0}
  m_GameObject: {fileID: 5251846395458165819}
  m_Enabled: 1
  m_CellSize: {x: 1, y: 1, z: 0}
  m_CellGap: {x: 0, y: 0, z: 0}
  m_CellLayout: 0
  m_CellSwizzle: 0
--- !u!114 &912633126947064902
MonoBehaviour:
  m_ObjectHideFlags: 0
  m_CorrespondingSourceObject: {fileID: 0}
  m_PrefabInstance: {fileID: 0}
  m_PrefabAsset: {fileID: 0}
  m_GameObject: {fileID: 0}
  m_Enabled: 1
  m_EditorHideFlags: 0
  m_Script: {fileID: 12395, guid: 0000000000000000e000000000000000, type: 0}
  m_Name: Palette Settings
  m_EditorClassIdentifier: 
  cellSizing: 0
